<?xml version="1.0" encoding="UTF-8"?>
<svg width="20px" height="25px" viewBox="0 0 20 25" version="1.1" xmlns="http://www.w3.org/2000/svg" xmlns:xlink="http://www.w3.org/1999/xlink">
    <!-- Generator: Sketch 45.2 (43514) - http://www.bohemiancoding.com/sketch -->
    <title>icon right</title>
    <desc>Created with Sketch.</desc>
    <defs></defs>
    <g id="Symbols" stroke="none" stroke-width="1" fill="none" fill-rule="evenodd">
        <g id="mobile/nav-white" transform="translate(-338.000000, -14.000000)" fill="#979797">
            <g id="icon/cart-gray" transform="translate(336.000000, 14.000000)">
                <path d="M20.9414619,11.6154372 C20.9328088,11.440978 20.9241556,11.2676353 20.9099197,11.0954092 C20.690799,8.34314128 19.8173866,5.79185028 18.3932414,3.79854951 C16.7097801,1.4379075 14.4591172,0.139372959 12.0571633,0.139372959 C9.65520932,0.139372959 7.40454637,1.4379075 5.71996856,3.79854951 C4.29693995,5.79157114 3.42241099,8.34314128 3.2035694,11.0954092 C3.18933353,11.2676353 3.18068036,11.4420945 3.17174805,11.6154372 C2.79882411,11.6319061 2.50015,11.9370003 2.50015,12.3143904 L2.50015,14.0961071 C2.50015,14.4841043 2.81417652,14.7981308 3.20245286,14.7981308 L3.25130143,14.7981308 C3.41599089,15.0183681 3.62980806,15.3195544 3.84669571,15.6617735 C4.15095251,16.1427226 4.45855893,16.7021085 4.63413465,17.22744 C4.95346472,18.187105 5.47991274,21.5160652 5.73308789,23.1788705 C5.81710743,23.7315572 6.2924738,24.139373 6.85074316,24.139373 L17.264979,24.139373 C17.8243649,24.139373 18.2986148,23.7315572 18.3826343,23.1788705 C18.6344138,21.5160652 19.1611409,18.187105 19.4815875,17.22744 C19.6560467,16.703225 19.9636531,16.1427226 20.2676308,15.6617735 C20.4847976,15.3195544 20.6994522,15.0183681 20.8630251,14.7981308 L20.9121528,14.7981308 C21.3004291,14.7981308 21.6144557,14.4841043 21.6144557,14.0961071 L21.6144557,12.3143904 C21.6144557,11.9358838 21.3155024,11.6307896 20.9414619,11.6154372 Z M3.95555823,11.6120875 C3.96421141,11.4387449 3.97398112,11.2654023 3.98933353,11.0942927 C4.47028259,5.38738412 7.90475572,0.948305269 12.0568841,0.948305269 C16.2090125,0.948305269 19.6437648,5.38710499 20.1255513,11.0942927 C20.1409037,11.2654023 20.1495568,11.4387449 20.1593266,11.6120875 L3.95555823,11.6120875 Z" id="Fill-1"></path>
            </g>
        </g>
    </g>
</svg>