
<svg width="21px" height="110px" viewBox="0 0 21 110" version="1.1" xmlns="http://www.w3.org/2000/svg" xmlns:xlink="http://www.w3.org/1999/xlink">
    <!-- Generator: Sketch 46 (44423) - http://www.bohemiancoding.com/sketch -->
    <desc>Created with Sketch.</desc>
    <defs></defs>
    <g id="Page-1" stroke="none" stroke-width="1" fill="none" fill-rule="evenodd">
        <g id="B1-A---Home-Desktop" transform="translate(-638.000000, -2961.000000)" fill="#B19F9C">
            <g id="it's-fresh" transform="translate(150.000000, 2380.000000)">
                <g id="Page-1" transform="translate(488.000000, 221.000000)">
                    <path d="M-9.861172,398.308184 L-2.65318744,394.140565 C-2.33218843,393.980065 -1.90275831,394.088497 -1.74172202,394.411643 C-1.58122251,394.733179 -1.68911683,395.162609 -2.01279978,395.322571 L-7.1750866,398.260947 L0.553581972,398.282418 C0.874580986,398.283492 1.19665358,398.607175 1.19558,398.927637 C1.19504321,399.248636 0.925575813,399.571246 0.550361246,399.570172 L-7.18313842,399.550311 L-2.03695522,402.517136 C-1.71434585,402.679783 -1.60859868,403.107603 -1.77124534,403.430212 C-1.93335521,403.752821 -2.36117496,403.858569 -2.68378434,403.695922 L-9.86439272,399.595401 L-14.7496971,399.581981 C-15.0706961,399.581445 -15.3933055,399.259372 -15.3922319,398.936763 C-15.3911584,398.615764 -15.1222277,398.294228 -14.7470132,398.295301 L-9.861172,398.308184 Z M-17.2414654,388.247603 L-9.98194922,384.189488 C-9.66041342,384.028989 -9.2309833,384.13742 -9.07048379,384.460029 C-8.90998428,384.781565 -9.0178786,385.211532 -9.34102477,385.372031 L-14.5033116,388.30987 L-6.77464302,388.330805 C-6.453644,388.331878 -6.1321082,388.653951 -6.13318177,388.97656 C-6.13371856,389.297559 -6.40318596,389.619632 -6.77840053,389.618558 L-14.5070691,389.597624 L-9.4177854,392.457092 C-9.09463924,392.619201 -8.98942886,393.047021 -9.15153873,393.369631 C-9.3136486,393.69224 -9.74200514,393.797987 -10.0646145,393.63534 L-17.2452229,389.53482 L-22.1305273,389.521937 C-22.4515263,389.520863 -22.7735989,389.198791 -22.7725253,388.876181 C-22.7719885,388.555182 -22.5025211,388.233646 -22.1273066,388.23472 L-17.2414654,388.247603 Z M32.366302,398.42456 L39.5737498,394.256941 C39.8947488,394.096441 40.3247157,394.204872 40.4852152,394.528018 C40.6457147,394.849017 40.5378204,395.278984 40.2141374,395.438947 L35.0523874,398.377323 L42.7805192,398.398794 C43.1015182,398.399331 43.4235908,398.723551 43.423054,399.044013 C43.4219804,399.365012 43.152513,399.687621 42.7772985,399.686548 L35.0443356,399.666686 L40.189982,402.633512 C40.5125914,402.796158 40.6183385,403.223441 40.4556919,403.546051 C40.2941188,403.869197 39.8657623,403.974407 39.5431529,403.812297 L32.3625445,399.711777 L27.4772401,399.698357 C27.1562411,399.69782 26.8341685,399.375748 26.8347053,399.053138 C26.8357789,398.732139 27.1052463,398.410067 27.4804608,398.41114 L32.366302,398.42456 Z M24.9854718,388.363978 L32.244988,384.305327 C32.5665238,384.145364 32.9964907,384.253259 33.1569902,384.576405 C33.3169529,384.897941 33.2090586,385.327371 32.8859124,385.488407 L27.7241624,388.426246 L35.4522942,388.44718 C35.7732932,388.448254 36.094829,388.770327 36.0942922,389.092936 C36.0932187,389.413935 35.8237513,389.736008 35.4485367,389.734934 L27.7204049,389.713999 L32.8096886,392.57293 C33.132298,392.735577 33.2380451,393.163397 33.0753985,393.486006 C32.9132886,393.808615 32.4854689,393.914363 32.1628595,393.751716 L24.9822511,389.651195 L20.0969467,389.638312 C19.7759477,389.637239 19.4533383,389.315166 19.4544119,388.992557 C19.4554855,388.671558 19.7244161,388.350022 20.0996306,388.351095 L24.9854718,388.363978 Z M74.5932392,398.540935 L81.8012238,394.373316 C82.1222228,394.212817 82.5516529,394.321248 82.7121524,394.643857 C82.8731887,394.965393 82.7647576,395.39536 82.4416114,395.555323 L77.2793246,398.493698 L85.0079932,398.514633 C85.3289922,398.515706 85.6510648,398.839926 85.6499912,399.160388 C85.6489176,399.481387 85.379987,399.80346 85.0047725,399.802386 L77.2712728,399.783062 L82.417456,402.749887 C82.7400654,402.912534 82.8452758,403.339817 82.6831659,403.662426 C82.521056,403.985036 82.0932363,404.090783 81.7700901,403.928136 L74.5894817,399.828152 L69.7041773,399.814733 C69.3831783,399.813659 69.0611057,399.492123 69.0621793,399.169514 C69.0627161,398.848515 69.3321835,398.526442 69.707398,398.527516 L74.5932392,398.540935 Z M67.2129458,388.480354 L74.472462,384.421703 C74.793461,384.26174 75.2234279,384.369634 75.3839274,384.69278 C75.5438901,385.014316 75.4359958,385.443746 75.1128497,385.604782 L69.9510996,388.542085 L77.6792314,388.563556 C78.0002304,388.56463 78.322303,388.886165 78.3212294,389.208775 C78.3201559,389.529774 78.0512253,389.852383 77.6760107,389.85131 L69.9473421,389.829838 L75.0366258,392.689306 C75.3592352,392.851953 75.4649824,393.279236 75.3023357,393.602382 C75.1407626,393.924991 74.7124061,394.030201 74.3897967,393.868092 L67.2091883,389.767571 L62.3238839,389.754151 C62.0028849,389.753614 61.6808123,389.431542 61.6813491,389.108932 C61.6824227,388.787933 61.9518901,388.465861 62.3271046,388.466934 L67.2129458,388.480354 Z M-52.0881092,398.191809 L-44.8801247,394.024189 C-44.5596624,393.86369 -44.1296955,393.972121 -43.969196,394.295267 C-43.8081597,394.616803 -43.9165908,395.046233 -44.2402738,395.206733 L-49.4020238,398.145108 L-41.673892,398.166043 C-41.352893,398.167116 -41.0302836,398.491336 -41.0313572,398.811798 C-41.0324308,399.132261 -41.3013614,399.45487 -41.676576,399.453796 L-49.4100756,399.433935 L-44.2638924,402.401297 C-43.9412831,402.563407 -43.8360727,402.991227 -43.9981826,403.313836 C-44.1602924,403.636446 -44.588649,403.742193 -44.9112583,403.579546 L-52.0918667,399.479026 L-56.9771711,399.466143 C-57.2981701,399.465069 -57.6202427,399.142996 -57.6191692,398.820387 C-57.6186324,398.499388 -57.349165,398.177852 -56.9739504,398.178926 L-52.0881092,398.191809 Z M-59.4684026,388.131764 L-52.2088864,384.073113 C-51.8878874,383.91315 -51.4579205,384.021044 -51.297421,384.34419 C-51.1369215,384.665189 -51.2453526,385.095156 -51.5684988,385.255656 L-56.7302488,388.193495 L-49.002117,388.214966 C-48.681118,388.215503 -48.3590454,388.537575 -48.360119,388.860185 C-48.3611926,389.181184 -48.6301232,389.503793 -49.0053377,389.50272 L-56.7340063,389.481248 L-51.6447226,392.340716 C-51.3221132,392.503363 -51.2163661,392.930646 -51.3790127,393.253255 C-51.5405858,393.575864 -51.9689424,393.681612 -52.2915517,393.518965 L-59.4721601,389.418981 L-64.3574645,389.405561 C-64.6784635,389.404488 -65.0005361,389.082952 -64.9999993,388.760342 C-64.9989258,388.439343 -64.7294584,388.117271 -64.3542438,388.118344 L-59.4684026,388.131764 Z" id="Combined-Shape" transform="translate(10.324997, 394.001780) scale(1, -1) rotate(90.000000) translate(-10.324997, -394.001780) "></path>
                </g>
            </g>
        </g>
    </g>
</svg>