<?xml version="1.0" encoding="UTF-8"?>
<svg width="154px" height="103px" viewBox="0 0 154 103" version="1.1" xmlns="http://www.w3.org/2000/svg" xmlns:xlink="http://www.w3.org/1999/xlink">
    <!-- Generator: Sketch 45.2 (43514) - http://www.bohemiancoding.com/sketch -->
    <title>icon1</title>
    <desc>Created with Sketch.</desc>
    <defs></defs>
    <g id="Page-1" stroke="none" stroke-width="1" fill="none" fill-rule="evenodd">
        <g id="1-A---Home-M" transform="translate(-107.000000, -837.000000)">
            <g id="How-it-works" transform="translate(58.000000, 771.000000)">
                <g id="Group" transform="translate(0.000000, 66.000000)">
                    <g id="step-1">
                        <g id="how-it-works---steps" transform="translate(0.000000, 6.971429)">
                            <rect id="Rectangle" fill="#D8D8D8" fill-rule="evenodd" x="20" y="114" width="220" height="2"></rect>
                            <text id="description" font-family="Karla-Regular, Karla" font-size="14" font-weight="normal" fill="#575757">
                                <tspan x="40.193" y="166">Lorem ipsum dolor sit amet, </tspan>
                                <tspan x="6.845" y="183">consectetur adipiscing elit. Ut pretium </tspan>
                                <tspan x="20.649" y="200">pretium tempor. Ut eget imperdiet </tspan>
                                <tspan x="55.782" y="217">neque. In volutpat ante.</tspan>
                            </text>
                            <text id="title" font-family="Karla-Bold, Karla" font-size="20" font-weight="bold" line-spacing="25" fill="#E86B7F">
                                <tspan x="60.07" y="141">Pick your style</tspan>
                            </text>
                            <text id="1" font-family=".SFNSDisplay, .SF NS Display" font-size="60" font-weight="normal"></text>
                        </g>
                        <g id="icon1" transform="translate(49.000000, 0.000000)">
                            <g>
                                <rect id="Rectangle-3-Copy" fill="#F9DED9" x="27.4367816" y="18.4871795" width="47.7931034" height="47.5384615"></rect>
                                <g id="ill1">
                                    <g id="Group-3" fill="#E86B7F">
                                        <path d="M136.23131,7.58812444 L17.4164065,7.58812444 C16.9061484,7.58812444 16.6464065,7.84659282 16.6464065,8.35296547 L16.6464065,75.4371296 C16.6464065,75.9435022 16.9061484,76.2019706 17.4164065,76.2019706 L135.982923,76.2019706 C136.493181,76.2019706 136.752923,75.9435022 136.752923,75.4371296 L136.742987,8.35296547 C137.003439,8.09449709 136.493181,7.58812444 136.232729,7.58812444 L136.23131,7.58812444 Z M135.46131,74.6729928 L18.1856968,74.6729928 L18.1856968,9.10512957 L135.210084,9.10512957 L135.210084,74.6729928 L135.46131,74.6729928 Z M153.387052,90.6846509 L144.164084,82.5545176 L144.17331,1.23416889 C144.17331,0.727796239 143.913568,0.470032137 143.40331,0.470032137 L10.2429871,0.470032137 C9.73272903,0.470032137 9.4729871,0.727796239 9.4729871,1.23416889 L9.4729871,82.295345 L0.250019355,90.4254783 C0.000212903226,90.6839467 0.000212903226,90.9417108 0.000212903226,91.1903193 L0.000212903226,96.2730612 C0.000212903226,99.5782168 2.56072903,102.11994 5.89195484,102.11994 L147.753632,102.11994 C151.084858,102.11994 153.645374,99.5782168 153.645374,96.2730612 L153.645374,91.1903193 C153.645374,90.9417108 153.645374,90.6839467 153.385632,90.6839467 L153.387052,90.6846509 Z M11.0129871,82.0495535 L142.893052,82.0495535 L142.893052,1.99900991 L11.0129871,1.99900991 L11.0129871,82.0495535 Z M10.502729,83.5693757 L143.153503,83.5693757 L150.835761,90.4289997 L2.82047097,90.4289997 L10.502729,83.5693757 Z M95.0082774,93.2284868 C95.0082774,93.9933279 94.4980194,94.4989962 93.7273097,94.4989962 L59.9175677,94.4989962 C59.1475677,94.4989962 58.6373097,93.9933279 58.6373097,93.2284868 C58.6373097,92.4643501 59.1475677,91.9579774 59.9175677,91.9579774 L93.7173742,91.9579774 C94.4880839,91.9579774 95.0082774,92.4643501 95.0082774,93.2284868 L95.0082774,93.2284868 Z M152.105374,96.2758783 C152.105374,98.559133 150.055116,100.594483 147.754342,100.594483 L5.89266452,100.594483 C3.59189032,100.594483 1.54092258,98.559133 1.54092258,96.2758783 L1.54092258,91.9579774 L57.3684065,91.9579774 C57.1086645,92.2157415 57.1086645,92.7221142 57.1086645,93.2284868 C57.1086645,94.7567603 58.3889226,96.027974 59.9296323,96.027974 L93.7294387,96.027974 C95.2701484,96.027974 96.5504065,94.7567603 96.5504065,93.2284868 C96.5504065,92.7221142 96.5504065,92.4643501 96.2899548,91.9579774 L152.118148,91.9579774 L152.105374,96.2758783 Z" id="Fill-1"></path>
                                    </g>
                                    <path d="M65.8962096,34.4112538 C65.2561606,33.4231618 65.6557412,32.5515635 65.3144777,31.7887396 C65.1035279,31.3157467 64.6657891,31.1571467 63.5649623,31.5206635 C63.7471135,31.1157423 63.8752673,30.6034502 63.7795119,30.1655458 C63.5368837,29.0553458 62.2517458,29.3290361 61.4590641,29.6518502 C60.6368638,29.9872963 59.7282677,29.6406219 58.9449456,29.8420299 C58.5950425,29.9325582 58.3430547,30.1143166 58.2393797,30.4771317 C57.9873918,30.1613352 57.6338889,29.8406263 57.2350282,29.7290449 C57.3516626,29.4623724 57.507895,29.1788573 57.5827714,28.9030617 C57.7469235,28.2960308 57.509335,27.9514617 56.1507606,27.529698 C58.0154705,26.9374042 58.3056165,25.4293007 56.4970639,24.3675228 C55.4682336,23.7640007 55.4250357,22.8124007 54.7677074,22.2804591 C54.3616471,21.9520308 53.8965496,22.0011547 53.0822689,22.8067865 C52.9706743,20.7969175 51.5782616,20.6481423 50.3384815,22.0601033 C49.6350755,22.8615246 47.6004538,23.0306511 47.845242,24.2117299 C46.9193667,23.7808431 45.7451035,23.8229493 45.8451787,25.1380662 C45.5550327,25.1766635 45.2036897,25.3907033 44.740752,25.8496609 C44.6291574,23.8397918 43.2367447,23.6910166 41.9969646,25.1029777 C41.4188326,25.7598343 40.4461596,25.8517662 39.8406688,26.3759883 C39.5699619,26.6089759 39.4266889,26.8840697 39.5037251,27.2546042 C38.905434,26.9752998 37.9478803,26.7774007 37.6015771,27.5149609 C37.085362,28.6153361 38.6757651,30.5852042 38.2689848,31.238552 C37.8384456,31.9319007 38.2185872,32.8266573 39.1876604,32.7459538 C39.3172541,32.7347255 39.4511677,32.70876 39.5865211,32.6743733 C38.9745507,33.0708733 38.265385,33.9396644 39.0631064,34.5340635 C38.8996743,34.6182759 38.7528014,34.7066989 38.6304073,34.8147715 C38.3597004,35.0491626 38.2164273,35.3228529 38.2941836,35.6933874 C37.6915727,35.4112759 36.7361789,35.2182892 36.3913155,35.9537441 C35.8758205,37.054821 37.4662236,39.0239874 37.0594433,39.6773352 C36.6289041,40.3699821 37.0083257,41.2654405 37.9773989,41.184737 C38.1077126,41.1742104 38.2430661,41.1482449 38.3784195,41.1117529 C37.8478052,41.4542166 37.1739177,42.1749343 37.6728536,42.8002113 C38.451856,43.7805839 39.9925815,42.8374051 40.8284611,44.0809414 C42.1171988,45.9995804 43.0207552,44.3427016 43.1539487,42.840914 C43.4721733,42.8430193 43.7507999,42.7124901 43.9783089,42.496345 C44.1777392,42.9623202 44.555721,43.4696998 44.9833803,43.8142688 C45.8919764,44.5483202 46.5637039,44.3581405 46.955365,43.7265476 C47.3938238,44.2676122 47.804204,44.8163963 48.176426,45.3721981 C48.1202687,45.3574609 48.0619515,45.3462326 48.0029144,45.3371096 C47.0000028,45.1813166 45.9956514,45.7792246 45.2612869,46.3897644 C45.156172,46.4774857 45.1302532,46.6206467 45.1885704,46.7364388 C45.5910309,47.6845299 46.5773833,47.5069821 47.7192481,47.2992582 C48.2102644,47.211537 48.7336791,47.1160963 49.2282952,47.1174998 C49.7308309,48.0585733 50.1296916,49.0094715 50.4421565,49.9589662 C50.306803,49.9814228 50.1800892,50.0073883 50.0656147,50.0347574 C49.501162,50.1737078 49.1526988,50.4158184 49.1526988,50.7274043 C49.1526988,50.9056538 49.4428448,51.3182945 49.5292406,51.4705786 C49.8719441,52.0776096 50.0864937,52.6811317 50.1498506,53.3520237 C50.2895239,54.8067928 49.7171515,56.2391052 49.2167757,57.5850998 C48.4327336,59.7037432 47.5421366,62.1030945 48.5205694,62.7101255 C49.9698593,63.6069875 53.6200829,63.6118999 55.0744126,62.7101255 C56.0528453,62.1030945 55.1629683,59.7058485 54.3782063,57.5872052 C53.8720707,56.2208591 53.2888989,54.7646866 53.452331,53.2881627 C53.5365669,52.5302512 53.8115937,51.8572538 54.2464526,51.1660105 C54.3558874,50.9940768 54.4214042,50.9274087 54.4214042,50.7260007 C54.4214042,50.2347618 53.6438418,50.0193184 52.9217167,49.925983 C52.9461955,49.8347529 52.9670745,49.7414175 52.9929932,49.6494857 C53.4883293,47.8319016 54.2500525,46.0248441 55.2248854,44.3405963 C55.7612594,44.3174379 56.3408314,44.4220016 56.8808053,44.5188458 C58.0226701,44.725868 59.0090225,44.9041175 59.411483,43.9560264 C59.4698002,43.8409361 59.4438815,43.6970733 59.3380466,43.609352 C58.9276664,43.2682919 58.5324055,43.0114441 58.1551437,42.8352998 C57.592131,42.5714343 57.0687162,42.4851166 56.5964191,42.5559954 C56.5042635,42.5714343 56.4164278,42.5910839 56.329312,42.6170494 C57.0031994,41.6612388 57.7483634,40.7664821 58.5518446,39.9552361 C58.5612041,39.9468149 58.562644,39.9355865 58.5705637,39.9264635 C58.8621496,39.6345272 59.1126975,39.2682034 59.287649,38.9910042 C59.5713153,39.1341653 59.8801804,39.1376741 60.1832857,39.0443388 C60.1472875,39.5482095 60.2509625,40.1664688 60.4727117,40.6598131 C61.1768377,42.2226547 62.3525409,41.7531706 63.1466625,40.5482317 C63.5476831,39.9390954 63.9955015,39.5875087 64.336045,39.3194326 C65.4239125,38.4625715 65.1467258,38.0394042 64.1387746,37.0779795 C66.1481974,37.3825476 66.9912767,36.1039228 65.8962096,34.4112538 Z M59.0975782,30.4020423 C59.8729807,30.2020379 60.7139001,30.5838007 61.688733,30.1858971 C62.0631149,30.0315078 63.0609866,29.6441308 63.1999399,30.2841449 C63.468487,31.51926 61.8507251,32.5810379 62.0861538,32.2013803 C62.5339721,31.476452 61.5872179,30.6659078 60.7650176,31.2918865 C60.467672,31.5171547 60.2113644,31.882075 60.0292132,32.1740113 C59.7527465,31.9515502 59.3423664,31.7648794 58.9039076,31.6617193 C58.6763985,30.771875 58.8038324,30.4785352 59.0975782,30.4020423 L59.0975782,30.4020423 Z M58.1889821,31.5718927 C56.6820949,31.5578573 56.3055531,32.5936697 56.846967,33.8519432 C56.8944847,33.9600157 56.9319229,34.0645795 56.9636013,34.1670379 C56.78361,33.9908936 56.5481814,33.8168547 56.2522757,33.6428157 C55.851975,33.4077228 55.5733485,33.0849087 55.3551991,32.7656033 C55.5978273,32.8210432 55.8368558,32.806306 56.0586051,32.6982334 C56.8844052,32.2961193 56.7944095,31.0532848 57.0312781,30.2785308 C57.5150947,30.3564272 58.0514688,31.1508308 58.1889821,31.5718927 L58.1889821,31.5718927 Z M46.3023566,38.4997653 C45.8523783,38.6260839 45.6227094,38.6499441 45.2144891,38.4190618 C45.8314993,37.9313317 46.2533989,36.8983264 45.7847016,36.1958547 C45.4988754,35.7691786 44.8969845,35.4821547 43.8242363,35.5649635 C43.6212061,35.5797007 43.4476945,35.5930343 43.3029815,35.5993502 C43.5024119,35.2196927 43.5772883,34.6330131 43.5139313,34.0884396 C45.4801563,35.5446122 46.0842071,31.7683883 46.3376349,31.9045317 C46.9683244,32.2378724 47.5702153,31.5887352 47.4780597,31.0750396 C48.528489,31.3760989 48.7336791,31.5480325 48.6652824,31.802775 C48.4060949,32.7712175 47.3880641,32.4855971 47.5982939,33.4905317 C47.0000028,33.211929 46.0424491,33.0140299 45.6961459,33.7515901 C45.526954,34.1122998 45.5514329,34.6919618 45.9106955,35.5684724 C46.562264,37.1551741 46.4621888,37.3130724 46.3642736,37.4723741 C46.169163,37.7881706 46.1612434,38.1601087 46.3023566,38.4997653 Z M53.7331174,36.454106 L53.7345574,36.454106 L53.8310327,36.5039317 C54.1528572,36.6674441 54.6021155,36.8906069 54.8569831,37.1804379 C54.9764974,37.3186865 55.0124956,37.4723741 54.8339442,37.6225529 C54.7885864,37.6611503 54.7511482,37.6415007 54.7194698,37.6246582 C53.7647959,37.1200857 53.4811296,38.8394219 53.1780243,39.4408388 C52.2053513,41.1461396 50.969171,38.7320511 51.1570819,38.3032697 C51.2866757,38.0337901 50.9785306,37.7144848 50.5962291,38.0450184 C50.3572006,38.2520405 49.7344307,38.7987193 49.4054066,38.7580166 C49.2074162,38.7341565 49.0907818,38.5488892 49.2059762,38.4541503 C49.54292,38.1727405 49.8229864,37.9362441 48.2988201,36.6674441 C47.4744599,35.9811131 47.4089431,35.3488184 48.4946506,34.9284582 C49.1001414,34.6933653 49.811467,34.6442414 50.0339362,34.8456494 C50.2837642,35.1024972 50.534312,34.8533688 50.5530311,34.541783 C50.5695903,34.2407237 50.6041487,33.6891325 50.7675808,33.3508794 C50.9007743,33.0764874 51.2549972,33.1059617 51.2398779,33.2940361 C51.2060396,33.7249228 51.1779609,34.0849308 53.1765843,33.9326467 C54.0758209,33.8652768 55.0506538,34.0849308 54.5927559,35.16706 C54.4235641,35.5649635 54.1110992,35.899006 53.8591114,35.899006 C53.6956793,35.899006 53.5617657,36.0295352 53.5617657,36.1881352 C53.5581659,36.3074361 53.6294425,36.4091927 53.7331174,36.454106 L53.7331174,36.454106 Z M52.2485492,32.5585812 C52.23199,32.7424449 52.1635933,33.1389449 52.0491188,33.3312299 C51.9677628,33.4666715 51.8194499,33.483514 51.8309694,33.3403529 C51.8964862,32.4961237 50.6775851,32.1880467 50.2297668,33.1073653 C50.0677746,33.4371971 50.0072975,33.8758033 49.9792189,34.2168635 C49.6307557,34.1396688 49.1771776,34.1530025 48.7387188,34.2512502 C47.8754805,33.2722812 48.0677112,33.0884175 49.0850221,32.6378812 C49.5861179,32.4154202 50.1448109,32.1683971 50.5472714,31.7115449 C51.0476472,31.1396025 51.4148295,30.9431069 51.6689772,30.9704759 C52.1981516,31.0329334 52.2845475,32.1648883 52.2485492,32.5585812 L52.2485492,32.5585812 Z M50.0936933,31.3353963 C49.8741039,31.5873317 49.5652389,31.7697918 49.2470143,31.9241812 C49.397487,31.3297821 49.1534188,30.9887219 47.8114036,30.5704671 C48.2613819,30.427306 48.7235996,30.1746688 49.0346245,29.820275 C49.5198811,30.4252007 50.3874391,29.8848379 50.8489368,29.5269352 C50.9238132,29.8300998 51.0764458,30.1564228 51.279476,30.4441485 C50.9331728,30.5543263 50.5379119,30.8308237 50.0936933,31.3353963 L50.0936933,31.3353963 Z M46.2361198,33.9887883 C46.3397948,33.7691343 46.6558595,33.800714 46.8552898,33.8421184 L46.8646494,33.8442237 C47.3052681,33.9382609 47.7926845,34.2098458 48.0597916,34.4842379 C46.7012173,35.1277609 46.8444904,36.2232237 47.9093189,37.1095591 C48.3060197,37.439391 48.6976808,37.6793963 48.7315192,37.8688741 C48.7840766,38.1657228 48.1987449,38.3236211 47.2339915,38.4022193 C46.8236114,38.436606 46.6940176,38.0555449 46.8704091,37.7713281 C47.0475206,37.4892166 47.2224721,37.2064033 46.4621888,35.3544326 C46.1720429,34.6407325 46.1310048,34.21546 46.2361198,33.9887883 L46.2361198,33.9887883 Z M46.7969727,38.9418803 C47.0777591,39.0218821 47.4067832,38.9804777 47.6854097,38.9046865 C47.5291773,39.0057414 47.3844643,39.1194281 47.2599103,39.2408343 C47.0475206,39.1510078 46.8293711,39.0787255 46.6090617,39.009952 C46.6731386,38.9888989 46.7350557,38.9671441 46.7969727,38.9418803 L46.7969727,38.9418803 Z M47.5745351,39.7636529 C47.866121,39.4113644 48.3981753,39.1060945 48.7747171,39.0808308 C49.2563738,39.7103184 50.1318515,39.1650432 50.5998289,38.8022281 C50.7603811,39.4408388 51.2549972,40.1685742 51.8648077,40.48016 L51.8741673,40.4857742 L51.8705675,40.5243715 C51.8043307,41.282283 51.5653022,42.9531972 50.6300674,41.5594821 C50.3327218,41.1173671 50.0209769,40.6513919 48.859673,40.605075 C48.5925659,40.5945485 47.6818099,40.5355998 47.4463813,40.2401547 C47.3319068,40.0934848 47.4780597,39.8808485 47.5745351,39.7636529 L47.5745351,39.7636529 Z M48.838794,41.1826317 C49.6912328,41.2177202 49.9187418,41.5552715 50.1354513,41.8766821 C50.6624658,42.6612609 51.1232436,42.840914 51.4961856,42.6851211 C51.4789064,43.2079396 51.4623472,43.7300565 51.4486679,44.2570857 C51.2398779,43.8661998 50.9763707,43.5602281 50.6682256,43.3384688 C50.3024832,43.0739016 49.8813036,42.9363547 49.4147661,42.9103892 C49.3017316,42.6044175 49.190857,42.2977441 49.0814223,41.9826494 C48.9914266,41.7187839 48.9043108,41.4486025 48.8200749,41.1805264 C48.8272745,41.1805264 48.8315943,41.1826317 48.838794,41.1826317 L48.838794,41.1826317 Z M49.108061,43.4851388 C49.5709986,43.4535591 49.9813788,43.5581228 50.3161626,43.8023388 C51.0426075,44.3265609 51.2981951,45.3778122 51.383151,46.2115149 C50.803579,46.2760777 50.3255221,45.582729 49.7797885,44.7904308 C49.4882026,44.3672635 49.1771776,43.917429 48.8164751,43.5195255 C48.9143903,43.502683 49.0115856,43.4914547 49.108061,43.4851388 L49.108061,43.4851388 Z M51.3961104,46.8045104 C51.3867508,47.3476804 51.3889107,47.8992715 51.383151,48.4459503 C51.2132392,47.8662883 51.0231684,47.2936441 50.825898,46.7259122 C51.0030094,46.7946857 51.1909203,46.8283706 51.3961104,46.8045104 L51.3961104,46.8045104 Z M51.3565123,51.0010945 L51.3543524,51.0010945 C51.3111545,50.8235467 51.2737163,50.6431919 51.2247587,50.4670476 C51.2341182,50.4670476 51.2434778,50.4656441 51.2528373,50.4656441 C51.2866757,50.6452972 51.3284337,50.8214414 51.3565123,51.0010945 L51.3565123,51.0010945 Z M51.9699227,49.8600166 L51.9663228,49.8600166 C51.9735225,48.7210441 51.9756824,47.5785627 51.9944015,46.4501166 L51.9944015,46.4192388 L51.9944015,46.4283618 L51.9944015,46.4227476 L51.9944015,46.4248529 L51.9944015,46.4087122 C52.0188803,44.9827158 52.0548786,43.563737 52.1038362,42.1531795 C52.1052761,42.1131786 52.0980765,42.0759848 52.0843971,42.0408963 C52.2845475,41.645098 52.4155811,41.1292972 52.458779,40.6303388 C52.7770037,40.6324441 53.0556302,40.5026166 53.2831392,40.2857697 C53.4544909,40.6857786 53.7611961,41.1117529 54.1132591,41.4415848 C53.2608203,44.1995405 52.4537393,47.0115326 51.9699227,49.8607184 L51.9699227,49.8600166 Z M54.6661924,41.1629821 C54.156457,40.7517449 53.5675255,40.0941865 53.8231131,39.4275051 C54.0081442,38.9510034 54.3105295,38.0709839 54.4350835,38.1348449 C54.6402736,38.2429175 54.8620229,38.3601131 55.2198456,38.0632644 C55.5265508,37.8064166 55.6208662,37.5516741 55.5755084,37.3060547 C56.6252177,37.6064122 56.8304078,37.7790476 56.762731,38.0337901 C56.5445816,38.8499485 56.1457209,39.2260972 56.0326863,40.278752 C55.9369309,41.1924565 55.6316657,41.9419467 54.6661924,41.1629821 L54.6661924,41.1629821 Z M54.5214793,36.2105918 C54.777787,36.0084821 55.0016961,35.7123352 55.1384895,35.3874157 C55.7713389,33.8947511 54.5272391,33.2505264 53.1290666,33.3564936 C52.9260365,33.3719325 52.7546847,33.3845644 52.6099717,33.3915821 C52.7921229,33.0435042 53.6726404,31.6147007 54.1449375,31.9978671 C54.7475484,32.4855971 54.7720272,33.4463202 55.9462905,34.13616 C56.6417769,34.5452918 56.8966446,34.9158264 56.8851251,35.2260087 C56.8793654,35.3726786 56.8116887,35.5151379 56.7044139,35.6456671 C56.2227571,36.2330485 55.2061663,36.6014777 54.5214793,36.2105918 L54.5214793,36.2105918 Z M52.7093269,31.3627653 C53.0275515,31.3648706 53.3040182,31.2329379 53.5300873,31.0181963 C53.5862445,31.1522343 53.659681,31.2883777 53.742477,31.4238193 C53.4919291,31.5171547 53.2003432,31.7262821 52.8374807,32.0820794 C52.8245214,31.8385653 52.7849233,31.5957529 52.7093269,31.3627653 L52.7093269,31.3627653 Z M57.0089591,28.7584971 C56.9189635,29.0925396 56.6741753,29.5051803 56.5460215,29.8553635 C56.2169974,30.399937 56.3789896,31.8890927 55.791498,32.1754148 C55.5114315,32.3115582 55.1197704,32.0547104 54.9109805,31.8876892 C54.3803662,31.4589078 53.9325478,30.7690679 53.9663862,30.3929193 C54.1096593,30.1065971 54.5272391,28.7809538 54.6777118,28.859552 C55.3076814,29.1928927 55.9102922,28.5444573 55.8181367,28.0307617 C56.8714458,28.3311193 57.0787958,28.50586 57.0089591,28.7584971 L57.0089591,28.7584971 Z M54.3918856,22.7267847 C54.9959364,23.2138131 55.0182553,24.1752378 56.1925186,24.8643759 C58.4676086,26.199844 55.8217365,27.538821 54.7677074,26.9374042 C55.211926,26.5851157 55.5337504,25.9815936 55.5373503,25.4187741 C55.5452699,24.2559414 54.3602071,24.0082166 53.3752947,24.083306 C53.1722646,24.0980431 53.0009128,24.110675 52.8561998,24.1183945 C53.0369111,23.7717201 53.9174285,22.3429166 54.3918856,22.7267847 L54.3918856,22.7267847 Z M53.4184927,24.6608626 C54.0002245,24.6173529 54.9484187,24.6482308 54.943379,25.4173706 C54.9390592,25.8243971 54.5387585,26.6272219 54.1017396,26.6272219 C53.9383075,26.6272219 53.805114,26.7577511 53.805114,26.9170529 C53.805114,27.0321432 53.8763905,27.1353033 53.9779056,27.1795148 L53.9793455,27.1809184 L54.0772608,27.230744 C54.4012452,27.3942564 54.8656227,27.636367 55.1032112,27.9072502 C55.3062414,28.1388343 55.1348897,28.4412971 54.963538,28.3514706 C54.0095841,27.846898 53.7259178,29.5655325 53.4228124,30.1690547 L53.411293,30.1908095 C53.1931435,30.613275 52.8828385,30.9480193 52.3896624,30.6953821 C51.9324845,30.4602892 51.2024398,29.484829 51.4018701,29.0300821 C51.5444232,28.7037591 51.1534821,28.5016494 50.8410172,28.7732343 C50.6019888,28.9809582 49.6314757,29.8869432 49.4111663,29.2883334 C49.3089313,29.0118361 50.4536759,29.1276281 48.4226541,27.4349591 C47.5673354,26.7212591 47.6868497,26.0629989 48.735839,25.6566741 C49.3391698,25.4236865 50.0504954,25.3724573 50.2729647,25.574567 C50.5213527,25.8307131 50.7733405,25.5857954 50.7920596,25.2707007 C50.8086188,24.9696414 50.8424572,24.4173485 51.0066092,24.0797971 C51.1398028,23.8047033 51.4940257,23.8320724 51.4789064,24.0229538 C51.4486679,24.4545423 51.4205892,24.8131467 53.4184927,24.6608626 L53.4184927,24.6608626 Z M50.7906197,22.4376555 C52.3709433,20.6369139 52.7849233,22.7408201 52.3918223,23.7366316 C52.3839027,23.756983 52.0527187,24.3275219 52.0735977,24.06506 C52.1398345,23.2215325 50.9202134,22.9127538 50.472395,23.8320724 C50.3104029,24.162606 50.2506458,24.6012122 50.2218471,24.9415706 C49.8719441,24.8643759 49.4205259,24.8777095 48.9820671,24.9766591 C47.4780597,23.2762706 49.7135517,23.6664547 50.7906197,22.4376555 L50.7906197,22.4376555 Z M48.3060197,25.211752 C47.7343674,25.4826352 47.2260719,25.9668564 47.3376665,26.6440644 C47.05904,26.2623016 46.8012925,25.6643936 46.4773081,25.3668432 L46.4737083,25.3492989 C46.1727628,23.8945299 47.8171634,24.7092847 48.3060197,25.211752 L48.3060197,25.211752 Z M46.0503687,25.7675538 C46.6544196,26.2552839 46.6767385,27.2160069 47.8510017,27.9051449 C48.5472081,28.3142768 48.8013558,28.6855131 48.7898364,28.9949936 C48.7617577,29.7522033 47.2109527,30.4259025 46.4269105,29.9802786 C47.0439207,29.4918467 47.4651004,28.4602449 46.997123,27.7577732 C46.4679486,26.9689839 45.3484027,27.1114432 44.514683,27.1612688 C44.6975541,26.8124892 45.5759117,25.3836856 46.0503687,25.7675538 L46.0503687,25.7675538 Z M46.4981871,28.0707626 C46.8293711,28.5641069 46.2591587,29.6679909 45.7623827,29.6679909 C45.4556775,29.6679909 45.2958452,30.0476485 45.7364639,30.2722148 C46.0575684,30.4350255 46.5190661,30.6715219 46.7616944,30.9480193 C46.9647246,31.1796033 46.7933728,31.4820662 46.6220211,31.3922396 C45.1619317,30.6202927 45.3750414,35.3375901 43.5981673,33.3747396 C43.2029064,32.9382387 42.941559,32.3410325 43.0581934,32.0708511 C43.1373895,31.9059352 43.0416342,31.7150538 42.8688425,31.6694387 L42.8666826,31.6694387 L42.8609229,31.6673334 L42.8479635,31.6638246 C42.6974908,31.6385609 42.6218944,31.7066325 42.4995004,31.8125998 C42.2698315,32.0126042 41.845052,32.3803317 41.4850694,32.5052467 C41.1898836,32.6084069 40.9645345,32.3424361 41.1092475,32.2231352 C41.4461913,31.9424272 41.7262577,31.7066325 40.2020914,30.4371308 C39.3777312,29.7507998 39.3122144,29.1178033 40.3979219,28.6981449 C41.0019727,28.4651573 41.7132983,28.4139281 41.9350476,28.6153361 C42.1834356,28.8721839 42.4361434,28.6265644 42.4541425,28.3114697 C42.4714217,28.0104104 42.5052601,27.4581175 42.6686922,27.1205662 C42.8026057,26.8454724 43.1561086,26.8735432 43.1417093,27.0637228 C43.0301147,28.4798945 45.8430188,27.0910918 46.4981871,28.0707626 L46.4981871,28.0707626 Z M40.2359297,26.8089803 C40.8342208,26.2917759 41.762256,26.2665122 42.4505427,25.4791263 C44.16262,23.5275042 44.4830045,25.9542246 43.8299961,27.1724971 C43.7299209,27.1591635 43.7320808,27.1353033 43.7342407,27.1079343 C43.7997575,26.2644069 42.5808564,25.9556281 42.1330381,26.8749467 C41.9710459,27.2047786 41.9105688,27.6433847 41.8824902,27.9844449 C41.5325871,27.9072502 41.0811689,27.9205839 40.6427101,28.0195334 C40.0271398,27.3240794 40.0062608,27.0068794 40.2359297,26.8089803 L40.2359297,26.8089803 Z M39.1408627,32.1705025 C38.7304825,32.2034856 38.6008888,31.8217228 38.7772802,31.5389095 C39.4115696,30.5227467 37.7462901,28.6013007 38.141551,27.7570715 C38.4050582,27.194252 39.7657925,28.0454989 39.9652228,28.252521 C38.6066485,28.896044 38.7492016,29.9908051 39.8140301,30.8771405 C40.2978468,31.2785529 40.5368752,31.4953998 40.6499097,31.6161042 C40.2589686,31.6771582 39.7859515,32.1164662 39.1408627,32.1705025 L39.1408627,32.1705025 Z M40.6823082,32.8484122 C40.8212615,33.0301706 40.9976529,33.1164883 41.1934835,33.1312255 C41.0638897,33.2470175 40.9285363,33.3824591 40.788863,33.5424626 C40.5217559,33.846329 40.1250551,34.0498423 39.7391538,34.2238812 C38.5800098,33.8687856 40.1228952,32.8870095 40.6823082,32.8484122 L40.6823082,32.8484122 Z M39.0242283,35.2477635 C39.6995557,34.663891 40.3597638,34.9214405 41.2388413,33.9179095 C41.7392171,33.3452653 42.1063993,33.1494715 42.3605471,33.1768405 C42.6427734,33.2098237 42.7954061,33.5894812 42.858763,33.8168547 C43.0056359,34.3452874 42.9775572,35.0000387 42.7896463,35.3228529 C42.775967,35.3446078 42.50742,35.7635644 42.5239792,35.5425069 C42.589496,34.6989795 41.3705949,34.3916042 40.9227766,35.310221 C40.7607844,35.6400529 40.7003073,36.0786591 40.6722287,36.4197193 C40.3223256,36.3425246 39.8709074,36.3558582 39.4324486,36.4548078 C38.8175983,35.7635644 38.7967193,35.4463644 39.0242283,35.2477635 L39.0242283,35.2477635 Z M37.9306012,40.6085839 C37.520941,40.6436724 37.3906273,40.2626113 37.5677387,39.9783945 C38.202028,38.9615299 36.5367485,37.0393821 36.9320094,36.1958547 C37.0356844,35.9754989 37.3517491,36.0063768 37.5504595,36.0491848 L37.560539,36.0512901 C38.0004378,36.1446255 38.4878542,36.4155087 38.7549613,36.6913042 C37.396387,37.3348272 37.5396601,38.4302901 38.6044886,39.3152219 C39.0883052,39.7180379 39.3172541,39.9243582 39.4302887,40.0457644 C39.0019094,40.260506 38.3956987,40.5699865 37.9306012,40.6085839 L37.9306012,40.6085839 Z M42.5671771,42.7307361 C42.5016602,43.4886476 42.2626318,45.15886 41.327397,43.765145 C40.2776877,42.2030051 38.7117634,43.158114 38.1458708,42.4465193 C37.8348458,42.0577388 39.0321479,41.3166697 39.4720467,41.2871954 C39.7225946,41.6142202 40.0868969,41.626852 40.4749582,41.492814 C40.7629443,41.3917591 41.0545302,41.1973688 41.2971585,41.0085927 C41.4569907,41.6472034 41.9523268,42.3756405 42.5614174,42.6872264 L42.5714969,42.6928405 L42.5671771,42.7307361 Z M42.8364441,42.1749343 C42.3792662,41.9405432 41.6492214,40.965083 41.8486518,40.5110379 C41.9818454,40.233137 41.6528213,39.9376919 41.2877989,40.2548919 C41.0566901,40.4541945 40.6333505,40.8233255 40.2733679,40.9475388 C39.9781822,41.0506989 39.7521131,40.7868334 39.8975461,40.6654272 C40.2337699,40.3854211 40.5145563,40.1489246 38.9903899,38.8794228 C38.1660298,38.1937936 38.1005129,37.5600954 39.1855005,37.140437 C39.7902713,36.9081511 40.5015969,36.8562202 40.7233462,37.0576281 C40.9717342,37.3151777 41.223722,37.0688564 41.2424411,36.7537618 C41.2611602,36.4527025 41.2935586,35.9004095 41.4569907,35.56356 C41.5909043,35.2877644 41.9422473,35.3158352 41.9292879,35.5067166 C41.8954495,35.9376033 41.8673709,36.2969095 43.8652743,36.1446255 C44.6845947,36.0821679 45.1115341,36.252698 45.2864857,36.5130547 C45.6155098,37.0063989 45.0474572,38.110283 44.5506812,38.110283 C44.3872491,38.110283 44.2533356,38.2408122 44.2533356,38.4008157 C44.2533356,38.5166078 44.3231722,38.6169609 44.4261272,38.6632777 L44.430447,38.6632777 L44.5262024,38.7124016 C44.8501867,38.8773175 45.2980051,39.0997786 45.5514329,39.3896095 C45.754463,39.6204918 45.5859912,39.9229547 45.4124796,39.8331281 C45.0229784,39.6275095 44.6975541,39.4548742 44.0222268,41.2970202 C43.8371957,41.7952768 43.4894525,42.5089768 42.8364441,42.1749343 L42.8364441,42.1749343 Z M45.362082,43.3693467 C44.8307477,42.9398635 44.3829293,42.2507255 44.4174877,41.8745768 C44.5600408,41.5882547 44.9797805,40.2619096 45.1280933,40.3412096 C45.7587828,40.675252 46.3592338,40.0275184 46.2706781,39.5138228 C46.4830678,39.5762803 46.6976175,39.644352 46.9049674,39.7229503 C46.8689692,39.8001449 46.8423305,39.8787432 46.8279312,39.9573414 C46.7573746,40.3152441 46.9179268,40.6085839 47.2188723,40.8050795 C47.0309614,41.2142113 46.8084921,41.7440476 46.7292959,42.4837131 C46.6299407,43.3988211 46.3268354,44.1490131 45.362082,43.3693467 L45.362082,43.3693467 Z M47.6083734,46.7315264 C46.8293711,46.8725821 46.1425243,46.9974972 45.8358191,46.6767883 C46.3909123,46.2466034 47.1735145,45.7960671 47.9057191,45.9097538 C48.3276187,45.9757202 48.6544829,46.2213396 48.8992711,46.549768 C48.4629721,46.577137 48.0245133,46.6557352 47.6083734,46.7315264 L47.6083734,46.7315264 Z M47.2303917,43.1272361 C47.224632,43.1195166 47.2167124,43.1181131 47.2109527,43.1117972 C47.2606303,42.9349511 47.2980684,42.7440697 47.3189474,42.54196 C47.3880641,41.8928228 47.5918142,41.4086016 47.762446,41.0345582 C47.8848401,41.0668396 48.0259533,41.0949104 48.176426,41.1187706 C48.280101,41.4563219 48.3945755,41.8043998 48.5191294,42.1644078 C48.6055253,42.4135361 48.7034405,42.6795069 48.797756,42.9419688 C48.5882461,42.9728467 48.3744164,43.0170582 48.1519472,43.0900423 L48.1483474,43.0921476 L48.1469074,43.0942529 L48.1411477,43.0956565 L48.1389878,43.0977618 L48.1332281,43.0998671 L48.1317882,43.0998671 L48.1260284,43.1012706 L48.1238685,43.1012706 L48.1181088,43.1033759 L48.1166689,43.1033759 L48.0828305,43.1251308 C48.0770708,43.1293414 48.0713111,43.1328503 48.0655514,43.1384644 C48.0597916,43.1412715 48.0540319,43.1468857 48.0482722,43.1510963 C48.0396326,43.1602193 48.0302731,43.1679388 48.0223534,43.17636 L48.0187536,43.1805706 L48.0129939,43.1917989 L48.010834,43.1932025 L48.0093941,43.1974131 L47.989955,43.2149573 L47.9870751,43.2205715 L47.9849153,43.2226768 L47.9769956,43.2332034 L47.9769956,43.2353087 L47.9733958,43.2409228 L47.9676361,43.2521511 L47.9640363,43.2570635 L47.9618764,43.2626777 L47.9568366,43.2851343 L47.9582765,43.292152 L47.9525168,43.3146087 L47.9510769,43.3272405 C47.9467571,43.3468901 47.9467571,43.3693467 47.948917,43.3896981 L47.948917,43.3911016 C47.9510769,43.4037334 47.9525168,43.4184706 47.9546767,43.4318042 L47.9546767,43.4353131 L47.9568366,43.4388219 L47.9568366,43.4423308 L47.9618764,43.4535591 L47.9618764,43.4556644 L47.9661962,43.4626821 L47.9676361,43.4640857 L47.969796,43.4696998 L47.969796,43.4718051 L47.9719559,43.4774193 L47.9719559,43.4795246 L47.9733958,43.4851388 L47.9733958,43.4865423 L47.9755557,43.4921565 L47.9755557,43.49356 L47.9791555,43.4991742 L47.9791555,43.5012795 L47.9870751,43.5125078 L47.9870751,43.5146131 L48.0201935,43.563737 L48.0223534,43.5658423 L48.031713,43.5770706 L48.0468323,43.591106 C48.5227293,44.0170804 48.9179902,44.5869175 49.2830125,45.1188591 C49.5162812,45.4585158 49.7401904,45.7813299 49.9720192,46.0543184 C49.9734591,46.0802839 49.9734591,46.1076529 49.9828187,46.1329166 C50.4291971,47.3546981 50.8503768,48.6108662 51.1369229,49.8880874 C51.1030846,49.889491 51.0706861,49.8937016 51.0390077,49.8944034 C50.2520857,47.4171556 48.9028709,45.1427193 47.2303917,43.1272361 L47.2303917,43.1272361 Z M50.2088878,50.6088051 C50.3327218,50.5772255 50.4745549,50.5533653 50.6250277,50.5302069 C50.6639058,50.6691574 50.6927044,50.8067043 50.7279827,50.9449529 C50.5379119,50.9182857 50.3593605,50.8888113 50.2088878,50.8530211 C49.6235561,50.7077547 49.6084368,50.7575804 50.2088878,50.6088051 L50.2088878,50.6088051 Z M53.8087138,57.7893149 C54.5157196,59.7002344 55.3177609,61.8644928 54.7475484,62.2188866 C53.494089,62.9957459 50.0886536,62.9908335 48.8423938,62.2188866 C48.2721814,61.8644928 49.0742226,59.7002344 49.7819484,57.7893149 C50.3161626,56.3457742 50.8971745,54.8692503 50.7467018,53.3028998 C50.6833448,52.6411308 50.494714,52.0432228 50.1973683,51.4558414 C50.3989586,51.4986494 50.6279075,51.5330361 50.8770155,51.5590016 C50.887815,51.6102308 50.9029342,51.66146 50.9144537,51.7105839 C51.465947,54.4271352 51.2002799,57.0854397 50.0296164,59.4216317 C49.9583399,59.5647928 50.0209769,59.7388317 50.1671298,59.8083069 C50.3140027,59.8784839 50.4925541,59.8195352 50.5645506,59.6749706 C50.9295729,58.9451299 51.2024398,58.1837096 51.4018701,57.4026397 C51.424189,58.8644264 51.4508277,60.3318273 51.4882659,61.8076494 C51.4918658,61.967653 51.6279392,62.0939715 51.7913713,62.0897609 C51.9548034,62.0869538 52.0851171,61.9543193 52.0815173,61.7950176 C52.0397593,60.1444547 52.0073609,58.5044184 51.9850419,56.8728034 C52.1527938,57.731068 52.4047816,58.5521388 52.7582846,59.3226822 C52.8245214,59.4679485 53.0009128,59.5339149 53.1499456,59.4693521 C53.3004184,59.405491 53.3666552,59.2328556 53.3004184,59.088291 C52.3011067,56.9092954 52.1167956,54.2755529 52.5682137,51.5695282 C52.873479,51.5442644 53.1535455,51.5035618 53.3925739,51.4523326 C53.1045878,52.0193627 52.9188368,52.5969193 52.8490002,53.229214 C52.6740486,54.8180211 53.2651401,56.3226158 53.8087138,57.7893149 Z M53.3025783,50.5954715 C53.9757457,50.7498609 53.9570266,50.718983 53.3040182,50.8656529 C53.1233069,50.9077591 52.9130771,50.9407423 52.6812483,50.9646025 C52.7114868,50.8123184 52.7453252,50.6600343 52.7813234,50.5077503 C52.9692344,50.5323122 53.1477857,50.5596812 53.3025783,50.5954715 L53.3025783,50.5954715 Z M56.6835349,43.1328503 C57.0377577,43.0781122 57.4438181,43.1510963 57.8937964,43.362329 C58.1666632,43.4907529 58.4546493,43.6683007 58.7534348,43.9005865 C58.4467296,44.2219972 57.7620427,44.0977839 56.9808805,43.9567281 C56.5654606,43.880937 56.1270018,43.8023388 55.6885429,43.7749697 C55.9369309,43.4444361 56.2623552,43.1981149 56.6835349,43.1328503 L56.6835349,43.1328503 Z M52.997313,47.7196184 C53.4458513,45.7357149 54.0175037,43.7707591 54.6143549,41.8359795 C55.7727789,42.5349423 56.4841045,41.6345715 56.6237777,40.3377007 C56.6496965,40.0885724 56.6972142,39.8626025 56.7533715,39.6590892 C56.7944095,39.7636529 56.8512868,39.8696202 56.9340828,39.9783945 C57.0823956,40.1727848 57.2328683,40.2899803 57.3855009,40.3545432 C55.4963122,42.4738883 53.9800655,45.0437697 52.997313,47.7203202 L52.997313,47.7196184 Z M58.8095921,38.6387157 C58.7023173,38.8099476 58.4373701,39.256975 58.1457842,39.5418936 C58.1364246,39.5489113 58.1263451,39.5524202 58.1191455,39.5601396 C58.1040262,39.574175 58.0910668,39.5910175 58.0781075,39.6050529 C57.8462787,39.8071626 57.6036504,39.888568 57.4114197,39.6331237 C57.0845555,39.202237 57.217749,38.6302945 57.3387032,38.1769511 C57.5021353,37.5699202 57.2667067,37.2253511 55.9066924,36.8028857 C56.3221123,36.6709529 56.7396921,36.4470883 57.0463973,36.1411166 C57.1486324,36.8246405 57.9873918,36.6288467 58.4712085,36.5313007 C58.3732932,36.9369237 58.3790529,37.4407945 58.4992871,37.8885237 C58.5691237,38.1488803 58.6763985,38.3952016 58.8247114,38.595206 L58.831911,38.604329 L58.8095921,38.6387157 Z M59.1882938,36.3467352 C59.4438815,36.1593626 59.2516507,35.7579503 58.9377459,35.8323379 C58.5180062,35.935498 57.5827714,36.3628759 57.6562079,35.7046157 C57.7087653,35.230921 57.7843617,34.5340635 57.3948605,33.6280786 C56.9751208,32.6526184 57.2047897,32.0596228 58.3711333,32.1592741 C59.0241417,32.2161175 59.6901096,32.4855971 59.784425,32.7663051 C59.9046592,33.123506 60.2358432,32.9698184 60.3870359,32.7150759 C60.5411084,32.4547193 60.8269346,31.9733051 61.1278801,31.7466334 C61.3748281,31.5599626 61.6772135,31.738914 61.5756984,31.9024263 C61.3481894,32.2708556 61.1566787,32.5810379 63.012029,33.3214051 C65.3828744,34.2680927 63.2294585,35.6330352 62.7146834,35.3782927 C62.5670905,35.3060104 62.3885391,35.3628538 62.3151027,35.5067166 C62.2625452,35.609175 62.2776645,35.7284759 62.3453412,35.8147936 L62.3475011,35.8161972 C62.3683801,35.8435662 62.3885391,35.8730405 62.413018,35.9060237 C62.6297275,36.2000653 62.9249132,36.5958635 63.0170688,36.9607839 C63.0926651,37.2583343 62.8010792,37.4520228 62.6894846,37.2962299 C62.185509,36.5888458 61.3935472,37.3993901 60.8233348,37.9383494 C58.9017477,39.7580388 58.770714,36.7060414 59.1882938,36.3467352 L59.1882938,36.3467352 Z M63.9580633,38.8752122 C63.5858413,39.1692538 63.0926651,39.555929 62.6412469,40.24226 C62.1307916,41.0142069 61.5137814,41.5552715 61.0112457,40.4345449 C60.7347791,39.818391 60.654143,39.0022326 60.860773,38.6829272 C61.1185205,38.4899405 62.1041529,37.4913219 62.2027881,37.6267635 C62.6124483,38.2001095 63.4483279,37.8850149 63.6045604,37.3860564 C64.3698834,38.0871246 64.7334658,38.2625671 63.9580633,38.8752122 L63.9580633,38.8752122 Z M63.1639417,35.9467264 C65.0228918,35.5523317 65.3483161,33.6301839 63.2373781,32.78806 C63.0494672,32.7129706 62.8896349,32.6470042 62.7557214,32.5915644 C63.0789858,32.3606821 64.5261158,31.4715396 64.770904,32.0196219 C65.0855288,32.7206901 64.6621893,33.5873759 65.3936739,34.7179272 C66.8184851,36.9186777 63.8263097,36.9404326 63.1639417,35.9467264 L63.1639417,35.9467264 Z" id="Fill-4" fill="#E86B7F"></path>
                                    <path d="M43.0378522,37.9569517 C42.6931325,37.99293 42.8264148,38.3055695 42.7677985,38.5046911 C42.6568462,38.878742 42.1753552,39.0530509 41.7810907,39.0933715 C41.2744784,39.1448578 40.7874048,39.0269976 40.5082796,38.6194497 C40.2312478,38.216244 40.585039,37.8235836 40.9841881,37.6070932 C41.4000848,37.379437 42.3121265,37.5258317 42.1258104,37.8924388 C42.0274188,38.0865978 41.7580629,38.2714521 41.5131305,38.2782756 C41.3163472,38.2826178 41.432882,38.0946619 41.4838223,37.9910691 C41.5480212,37.8614229 41.4789377,37.710686 41.3330947,37.6536169 C41.1865539,37.5971681 41.0169854,37.6585794 40.9534844,37.7882256 C40.8292736,38.0431757 40.8132239,38.2472598 40.8655599,38.4041999 C40.9555778,38.6696953 41.2284227,38.7937586 41.5256911,38.7869352 C41.9925281,38.7751491 42.4579695,38.4773972 42.6491703,38.1008651 C42.8243214,37.7541082 42.7133691,37.4222388 42.3595778,37.2113312 L42.3574844,37.2094703 C41.8599436,36.9141996 41.1921365,36.8931089 40.6834307,37.1685294 C39.9995738,37.540099 39.5564625,38.2181049 40.0156235,38.8855655 C40.413377,39.4649411 41.1160748,39.6758487 41.8452896,39.6007904 C42.4872776,39.5362775 43.1474089,39.2261192 43.32256,38.6349576 C43.3881544,38.4153656 43.4411882,37.9166311 43.0378522,37.9569517" id="Fill-6" fill="#E86B7F"></path>
                                    <path d="M51.8889488,35.3086103 C51.5440782,35.3447473 51.6774188,35.6587657 51.6187769,35.8593886 C51.507776,36.2350892 51.0260742,36.4095438 50.6316372,36.4500422 C50.1248032,36.5023786 49.6375164,36.3839987 49.358269,35.9746533 C49.0811159,35.5690462 49.4364583,35.1752771 49.8343858,34.9572087 C50.1555204,34.7808849 50.577184,34.8008226 50.8927336,34.9858691 C50.9583567,35.0257445 50.9925645,35.0662429 51.0037344,35.103626 C51.036546,35.2269904 50.8724881,35.3952145 50.777544,35.4699808 C50.6553733,35.5678001 50.4969004,35.626367 50.364956,35.6301053 C50.1680865,35.6344667 50.2853704,35.4456818 50.335635,35.341632 C50.3998619,35.2114141 50.3307481,35.0600124 50.1848414,35.0026915 C50.0389346,34.9453707 49.8685937,35.007676 49.8050649,35.1378939 C49.6807998,35.3933454 49.664743,35.5989527 49.7178,35.7565849 C49.9111789,36.3316623 50.7649779,36.1684226 51.1608111,35.8544042 C51.4288886,35.6406972 51.6536828,35.317333 51.5643236,34.984623 C51.3814166,34.3042498 50.1680865,34.1721627 49.534893,34.5173337 C48.8507368,34.8905421 48.4074315,35.5709153 48.8653973,36.2419427 C49.2633249,36.8232506 49.9656321,37.0350884 50.6958641,36.9596991 C51.3374351,36.8949016 51.9985534,36.5839985 52.173083,35.9896065 C52.2387062,35.769669 52.2917632,35.2681119 51.8889488,35.3086103 Z" id="Fill-8" fill="#E86B7F"></path>
                                    <path d="M60.873757,34.6725906 C60.5292553,34.5358461 60.4895051,34.9610977 60.3275599,35.1571244 C60.0235445,35.5278363 59.475139,35.4780392 59.0827898,35.3246957 C58.5763429,35.1247168 58.1825215,34.7405676 58.1361463,34.1390501 C58.0897711,33.5343708 58.6308154,33.2735288 59.1269567,33.2300551 C59.3485273,33.2110848 59.5634728,33.2553489 59.7313069,33.3873508 C60.1096699,33.6932473 60.4291437,34.0963668 59.7423487,34.2923936 C59.3485273,34.4054251 58.9789977,34.2923936 59.3926942,33.9201008 C59.5215142,33.8039076 59.539181,33.5983957 59.4309721,33.4616512 C59.3234994,33.3233259 59.1328457,33.305146 59.0040256,33.4205488 C58.5211343,33.8544951 58.365078,34.5239897 59.0099145,34.8504374 C59.2579852,34.9737446 59.5965979,35.0093139 59.898405,34.9215762 C61.0357023,34.5951284 60.9834381,33.5833775 60.0949476,32.8664571 C59.7982934,32.6269567 59.436861,32.5471232 59.0791093,32.5795309 C58.2421468,32.6538313 57.4567124,33.1952762 57.5340044,34.1935898 C57.5995186,35.0464642 58.1493964,35.6511434 58.8766777,35.9388601 C59.5178337,36.1910074 60.302532,36.1759892 60.7832149,35.5910707 C60.9606186,35.3729119 61.2756757,34.8314671 60.873757,34.6718002 L60.873757,34.6725906 Z" id="Fill-10" fill="#E86B7F"></path>
                                    <path d="M49.7424411,27.4430268 C50.1407656,28.0210334 50.8457089,28.2308238 51.5772539,28.1565617 C52.2212935,28.0915824 52.8835343,27.7827758 53.0592451,27.1923922 C53.123649,26.9739379 53.1761522,26.4763818 52.7722274,26.5166071 C52.4264061,26.5525005 52.5601144,26.8637824 52.5013107,27.0630524 C52.3900039,27.4368383 51.9069742,27.6101165 51.5114499,27.6503418 C51.0046187,27.7023252 50.5145886,27.5841247 50.2345714,27.1775398 C49.8593483,26.6341888 50.7120007,25.9590226 51.2881361,26.048756 C51.5079497,26.0846493 52.0000799,26.1719073 51.8593713,26.4503901 C51.7585651,26.6440904 51.4897485,26.8285079 51.2447335,26.8353153 C51.0466213,26.8396473 51.1642285,26.6527543 51.2153317,26.5487874 C51.2769355,26.4194476 51.2097313,26.2690668 51.0634223,26.2127514 C50.9171133,26.1558171 50.7470029,26.2177022 50.6825989,26.347042 C50.5586913,26.6007709 50.5418903,26.8043728 50.5950935,26.9615609 C50.684699,27.226429 50.9591159,27.3495803 51.2573343,27.3427729 C51.7256631,27.3316336 52.1925918,27.0339664 52.3844036,26.658324 C52.7190241,26.0023421 52.0385823,25.6495972 51.3889423,25.5462491 C50.3402779,25.381016 49.0928011,26.5017547 49.7424411,27.4430268" id="Fill-12" fill="#E86B7F"></path>
                                    <path d="M40.8972199,30.0816609 C41.2956487,30.6614375 41.9988405,30.8720959 42.7299923,30.7975266 C43.5939537,30.710529 44.3502693,30.2034575 44.2426237,29.3763592 C44.2237507,29.2359202 44.0818542,29.1352516 43.9224826,29.1507869 C43.7638101,29.1669436 43.6505725,29.2937115 43.6687464,29.4353932 C43.7379472,29.9710497 43.1955249,30.2339066 42.6635875,30.2892122 C42.1561151,30.3414107 41.6682146,30.2233426 41.3886154,29.8150755 C41.1111133,29.4111582 41.4669032,29.0178049 41.865332,28.7996896 C42.2819347,28.5728745 43.1955249,28.7189061 43.0088924,29.0855387 C42.9138287,29.2725835 42.6677815,29.4403645 42.4406072,29.4726779 C42.1980549,29.5080983 42.3022056,29.3179465 42.3665134,29.1855859 C42.4280252,29.0550896 42.3609214,28.9040867 42.2148309,28.8475383 C42.0680413,28.7922327 41.8988839,28.8518881 41.834576,28.9817631 C41.7101544,29.2371631 41.6940775,29.4416073 41.7465023,29.5994458 C41.7940342,29.7405061 41.8925929,29.8411747 42.0247035,29.9064229 C42.5559418,30.1711441 43.3031705,29.7535558 43.5352378,29.2955757 C43.7127833,28.9482069 43.5995456,28.6151305 43.2430567,28.4038507 L43.2416587,28.4026079 C41.9275428,27.6246011 40.1283223,28.9643636 40.8972199,30.0816609" id="Fill-14" fill="#E86B7F"></path>
                                    <path d="M102.845807,32.7255255 L102.845807,32.7255255 C103.244799,33.3030483 103.948984,33.5128878 104.681169,33.4386083 C105.325156,33.3742328 105.987342,33.065354 106.163038,32.4748323 C106.226737,32.2563269 106.279936,31.7580355 105.875344,31.7982702 C105.529552,31.8341719 105.663249,32.1461457 105.60445,32.3454622 C105.493152,32.7187165 105.010162,32.8926543 104.614671,32.932889 C104.108581,32.9842656 103.617891,32.8666565 103.337897,32.4599764 C102.962705,31.9164983 103.815287,31.2405552 104.391375,31.3309286 C104.611171,31.3668303 105.10326,31.4534897 104.962563,31.7326567 C104.861765,31.9264023 104.592971,32.1108629 104.347976,32.1176719 C104.15058,32.1220049 104.267478,31.9344492 104.318577,31.831077 C104.380876,31.7017069 104.312977,31.551291 104.16668,31.4943434 C104.020383,31.4380148 103.850287,31.4992954 103.785888,31.6286654 C103.66199,31.8830726 103.645191,32.0867221 103.69839,32.243328 C103.787988,32.5082581 104.062382,32.6320572 104.360576,32.6252482 C104.828866,32.6134873 105.295756,32.3163694 105.487552,31.9406392 C105.822145,31.2838849 105.14176,30.9316765 104.492873,30.8283042 C103.444295,30.6630324 102.196221,31.7840333 102.845807,32.7255255" id="Fill-16" fill="#B19F9C"></path>
                                    <path d="M94.0006774,35.3638834 L94.0006774,35.3632621 C94.399119,35.9435251 95.1023335,36.1541345 95.8335089,36.0795825 C96.6974981,35.9919839 97.4531392,35.4850304 97.3461891,34.6587457 C97.3273155,34.5177182 97.1854144,34.417073 97.0260377,34.433226 C96.8673601,34.4493789 96.7534198,34.575496 96.7722933,34.7171448 C96.8414963,35.2532979 96.2990565,35.5160937 95.767102,35.5713864 C95.2596131,35.6235728 94.7716969,35.5049109 94.4920887,35.09736 C94.2145776,34.6929154 94.570379,34.3002749 94.9688206,34.0822103 C95.3854368,33.8548267 96.2990565,34.0014457 96.112418,34.367993 C96.0173513,34.5549942 95.7712961,34.7221149 95.5441144,34.7550421 C95.3015544,34.7904543 95.4057084,34.6003467 95.4693193,34.4673956 C95.5315321,34.3375509 95.4637271,34.1859619 95.3176318,34.1294266 C95.1715366,34.0747551 95.0016746,34.1343967 94.9380637,34.2642414 C94.8136381,34.519582 94.7975606,34.7239787 94.8499872,34.8817805 C94.8975206,35.022808 94.9960824,35.1228319 95.1281973,35.1886862 C95.6594528,35.4533458 96.4067056,35.0358546 96.6387804,34.5773598 C96.8156326,34.2300718 96.7030903,33.8976941 96.3465899,33.6864635 L96.3444928,33.6845997 C95.0310335,32.9067739 93.2317549,34.2462247 94.0006774,35.3638834" id="Fill-18" fill="#B19F9C"></path>
                                    <path d="M104.991793,40.590786 L104.991793,40.590786 C104.646987,40.6269204 104.780303,40.9409156 104.721672,41.1409006 C104.610692,41.5171964 104.129081,41.6916382 103.735416,41.7321336 C103.227979,41.7844661 102.740784,41.6654719 102.461589,41.2567798 C102.184488,40.8512026 102.539764,40.4568396 102.937617,40.2394104 C103.258691,40.0630996 103.680275,40.0830358 103.995765,40.2680687 C104.061376,40.3073181 104.096275,40.3478135 104.106745,40.3858169 C104.140249,40.5091722 103.975524,40.6773839 103.881295,40.7521446 C103.75845,40.8493336 103.600006,40.9085192 103.468785,40.9116343 C103.271952,40.9159953 103.388516,40.7278474 103.439469,40.6238053 C103.503684,40.492974 103.433885,40.3415835 103.288006,40.2848899 C103.142127,40.2275733 102.972516,40.2898739 102.908301,40.4200823 C102.784757,40.6755149 102.768006,40.8804839 102.821053,41.0387275 C103.014395,41.6137624 103.868033,41.4505347 104.263792,41.1365395 C104.531819,40.9228484 104.756571,40.5988851 104.667229,40.2661997 C104.484356,39.5864998 103.271952,39.4544225 102.63818,39.798945 C101.954153,40.1721257 101.510931,40.8530717 101.96881,41.5234265 C102.366663,42.1053144 103.069536,42.3171365 103.798933,42.2417528 C104.441081,42.1769601 105.101377,41.8654569 105.276572,41.2717319 C105.342182,41.0511877 105.395229,40.5502906 104.991793,40.590786" id="Fill-20" fill="#B19F9C"></path>
                                    <path d="M113.886663,40.8737153 C114.064067,40.6547952 114.379124,40.1134222 113.977205,39.9545668 C113.632704,39.8178405 113.592217,40.2438259 113.431008,40.4398266 C113.126993,40.809699 112.578587,40.7599084 112.186238,40.6073756 C111.679791,40.406633 111.28597,40.0225348 111.239595,39.4218875 C111.193219,38.8164982 111.734264,38.5556908 112.230405,38.5130132 C112.451976,38.4940454 112.666921,38.5375133 112.834755,38.6702879 C113.213118,38.9761439 113.533328,39.3776292 112.845797,39.5744203 C112.451976,39.6882271 112.08171,39.5744203 112.496142,39.2029673 C112.624963,39.0867895 112.641893,38.8813048 112.53442,38.7445785 C112.426948,38.6062716 112.236294,38.5865134 112.107474,38.7026913 C111.624583,39.13658 111.468526,39.8051953 112.113363,40.13239 C112.361433,40.2564711 112.700046,40.2912455 113.001853,40.2043097 C114.139151,39.8779052 114.086886,38.8662887 113.19766,38.1494635 C112.901742,37.9099949 112.540309,37.8285913 112.182558,37.861785 C111.345595,37.9360756 110.560161,38.4782389 110.637453,39.4748393 C110.702967,40.3291811 111.252845,40.93378 111.980126,41.2206682 C112.621282,41.472782 113.40598,41.4585561 113.886663,40.8737153" id="Fill-22" fill="#B19F9C"></path>
                                    <path d="M96.1413005,43.2386128 L96.1413005,43.2386128 C95.7965808,43.2745996 95.9298631,43.5873124 95.8712468,43.7871012 C95.7602945,44.1612397 95.2788034,44.3349691 94.884539,44.3752991 C94.3779267,44.4274179 93.8908531,44.3095301 93.6117279,43.9018866 C93.334696,43.4985864 93.6884873,43.105834 94.0876364,42.8886723 C94.503533,42.6615832 95.4155748,42.8073918 95.2292587,43.1740848 C95.1308671,43.3682894 94.8608134,43.5538075 94.6165788,43.5600121 C94.4197955,43.5643554 94.5363303,43.3769759 94.5872706,43.2733587 C94.6514694,43.1436822 94.5823859,42.9929099 94.4358452,42.9358274 C94.2900022,42.8787449 94.1204336,42.9407911 94.0569326,43.0704677 C93.9327219,43.324857 93.9166722,43.528989 93.9690082,43.6865864 C94.0583283,43.9521441 94.331871,44.075616 94.6291394,44.0694114 C95.0959764,44.0576226 95.5614178,43.7591804 95.7526186,43.3831805 C95.9277697,43.0363423 95.8168174,42.7037747 95.4630261,42.4928176 L95.4609327,42.4915767 C94.9633919,42.1962368 94.2955847,42.1751411 93.786879,42.4506262 C93.1030221,42.8222829 92.6599107,43.4998273 93.1190718,44.1680648 C93.5168253,44.7469558 94.2188253,44.9579128 94.9487378,44.8828369 C95.5900281,44.8183089 96.2508571,44.5086984 96.4260082,43.9167777 C96.4916027,43.6977547 96.5446365,43.1989033 96.1413005,43.2386128" id="Fill-24" fill="#B19F9C"></path>
                                    <path d="M116.267915,41.3880404 L116.267915,41.3880404 C118.126899,40.9894035 118.452329,39.0465807 116.341353,38.1953987 C116.153439,38.120211 115.992883,38.0528258 115.859687,37.9974989 C116.182958,37.7641332 117.630114,36.8647176 117.874907,37.4186952 C118.188817,38.1265949 117.76547,39.0040216 118.497688,40.1460241 C119.921805,42.3704463 116.930295,42.3924351 116.267915,41.3880404 L116.267915,41.3880404 Z M117.062051,44.348735 L117.062051,44.348735 C116.689102,44.6452301 116.196637,45.0367738 115.744491,45.7297777 C115.234746,46.5107372 114.617725,47.0569123 114.11518,45.9248403 C113.837988,45.3020588 113.758071,44.4764123 113.964705,44.1536725 C114.222457,43.9593193 115.208107,42.9485407 115.306024,43.0861484 C115.716412,43.6663708 116.552307,43.3478869 116.707822,42.8435616 C117.473879,43.5514612 117.837468,43.7295001 117.062051,44.348735 L117.062051,44.348735 Z M112.292195,41.7916425 C112.547787,41.6029639 112.355553,41.1965245 112.041643,41.2731308 C111.621895,41.3766913 110.686644,41.8086662 110.760081,41.1433256 C110.81264,40.6645357 110.888237,39.9601827 110.498729,39.0444527 C110.078982,38.0585003 110.308655,37.4598357 111.47502,37.5598495 C112.12804,37.6173043 112.79402,37.8896825 112.888337,38.1734099 C113.008573,38.5351622 113.339763,38.3791122 113.490239,38.1216296 C113.644314,37.8577632 113.930866,37.3725895 114.231817,37.1427704 C114.478769,36.9533824 114.78116,37.1349679 114.679643,37.300239 C114.45213,37.6733405 114.259896,37.9861498 116.11528,38.73519 C118.486168,39.691351 116.333433,41.0709751 115.817929,40.8127833 C115.671053,40.7411421 115.492499,40.7985969 115.419061,40.9425885 C115.366502,41.0468583 115.381622,41.1667331 115.4493,41.2546886 L115.45146,41.2561072 C115.472339,41.2844799 115.492499,41.3142713 115.516978,41.3468999 C115.733691,41.643395 116.028882,42.0441598 116.12104,42.4130054 C116.196637,42.713047 115.905046,42.9102375 115.793449,42.7527688 C115.289465,42.0370667 114.497489,42.85562 113.927266,43.4010857 C112.005644,45.2403481 111.873888,42.1555228 112.292195,41.7916425 L112.292195,41.7916425 Z M111.913487,44.1096947 C111.80621,44.2820591 111.541258,44.7346042 111.249667,45.0211688 C111.239587,45.0289713 111.230227,45.0332272 111.223027,45.039611 C111.207908,45.055216 111.194948,45.0715304 111.181989,45.086426 C110.950156,45.2907097 110.707523,45.371572 110.515289,45.1140894 C110.188419,44.678568 110.321615,44.0997643 110.441851,43.642254 C110.606006,43.0286936 110.370573,42.679709 109.009814,42.2541181 C109.425962,42.1200569 109.843549,41.8944937 110.15026,41.5845216 C110.252497,42.2761069 111.091271,42.0782071 111.574377,41.9796119 C111.47718,42.3888885 111.48294,42.8988884 111.603176,43.3514335 C111.673014,43.6145906 111.780291,43.862852 111.928606,44.0642984 L111.935806,44.0742288 L111.913487,44.1096947 Z M109.13653,45.7666623 C109.040053,46.6901947 108.735502,47.448456 107.770012,46.6604033 C107.260267,46.2454521 106.671325,45.5794023 106.926917,44.9069685 C107.111231,44.4246321 107.414342,43.5344376 107.538899,43.5996949 C107.744092,43.7089299 107.965846,43.827386 108.323675,43.5280537 C108.629666,43.2677339 108.723983,43.0102514 108.678624,42.76199 C109.729072,43.0655782 109.934266,43.2400705 109.866588,43.4982624 C109.648435,44.3231995 109.248847,44.7026848 109.13653,45.7666623 L109.13653,45.7666623 Z M106.281097,44.9197362 C105.308406,46.6433797 104.072923,44.2040341 104.260837,43.7699313 C104.390434,43.497553 104.082283,43.1755225 103.699974,43.5081928 C103.460942,43.718151 102.83816,44.2700007 102.50913,44.2302788 C102.311136,44.206162 102.1945,44.0181927 102.308976,43.9217254 C102.646646,43.6387074 102.926718,43.3996671 101.402524,42.1165103 C100.578149,41.4235063 100.512631,40.7829919 101.598358,40.3588196 C102.20386,40.1219072 102.915198,40.072255 103.137671,40.2758293 C103.387504,40.5354398 103.638056,40.2829225 103.656776,39.9679852 C103.673335,39.6636876 103.707174,39.1054541 103.871329,38.7649813 C104.004525,38.4862192 104.358035,38.5160106 104.343635,38.7075265 C104.309796,39.143048 104.281717,39.506219 106.279657,39.3522969 C107.178909,39.283493 108.15376,39.506219 107.696574,40.5999878 C107.527379,41.0021713 107.214908,41.3398068 106.962916,41.3398068 C106.799481,41.3398068 106.665565,41.4710306 106.665565,41.6327552 C106.661965,41.7533393 106.733243,41.8547719 106.83692,41.9015869 L106.83836,41.9015869 L106.934837,41.9512391 C107.256667,42.1165103 107.705934,42.3427828 107.960086,42.6357313 C108.080322,42.7747577 108.116321,42.9300984 107.937767,43.0826018 C107.892408,43.120905 107.854249,43.1010441 107.82329,43.0847298 C106.868599,42.5747299 106.584927,44.3111411 106.281097,44.9197362 L106.281097,44.9197362 Z M104.973616,46.0149237 C104.908098,46.7809875 104.669065,48.469165 103.733813,47.0604589 C103.436462,46.6135883 103.124712,46.1433103 101.963387,46.0972046 C101.695555,46.0858555 100.785502,46.0262728 100.550069,45.7276498 C100.434873,45.5794023 100.581749,45.3644788 100.678226,45.2453133 C100.969817,44.8899449 101.501881,44.5821007 101.878429,44.5565653 C102.360095,45.1921145 103.234868,44.6416835 103.703574,44.2742566 C103.863409,44.9197362 104.358755,45.6560086 104.968576,45.970946 L104.977216,45.9766205 L104.973616,46.0149237 Z M100.363595,44.7168712 C100.151202,44.6260785 99.9330481,44.5544373 99.7127348,44.4835055 C99.7768128,44.4636446 99.8387309,44.4416557 99.9006491,44.4154109 C100.181441,44.4969825 100.510471,44.4537141 100.789102,44.3785264 C100.632867,44.4799589 100.488151,44.5948685 100.363595,44.7168712 L100.363595,44.7168712 Z M99.339786,39.4097517 L99.339786,39.4097517 C99.4434629,39.1870257 99.7595333,39.2182357 99.9589673,39.2615041 L99.968327,39.2636321 C100.408954,39.3579714 100.896379,39.6317683 101.163491,39.9105304 C99.804892,40.5609753 99.9481676,41.6682211 101.013016,42.5626715 C101.409724,42.8967604 101.801392,43.1400566 101.835231,43.3308632 C101.887789,43.6309049 101.302447,43.7905015 100.337676,43.8699451 C99.9272883,43.9054111 99.7976922,43.5195419 99.9740869,43.2329773 C100.151202,42.9464127 100.326156,42.6612668 99.5658592,40.7886664 C99.2757079,40.067999 99.2346692,39.6374428 99.339786,39.4097517 L99.339786,39.4097517 Z M99.4679421,42.9300984 C99.272108,43.2492916 99.2649083,43.6252303 99.406024,43.9685404 C98.9560376,44.0962177 98.7263645,44.1210438 98.3181368,43.8862595 C98.9351582,43.3939926 99.3570655,42.349876 98.8883596,41.6398484 C98.6025283,41.2078736 97.9999064,40.919181 96.9278588,41.0021713 C96.7241049,41.0177763 96.5513102,41.0298347 96.4065945,41.0376372 C96.6053085,40.653896 96.6809062,40.0609059 96.6175482,39.5104749 C98.5838088,40.9823103 99.1871506,37.1647592 99.4413029,37.3016577 C100.072004,37.6392932 100.673906,36.9831738 100.581749,36.4646621 C101.631477,36.767541 101.837391,36.9420333 101.768993,37.2002252 C101.509081,38.1790844 100.491751,37.8896825 100.701985,38.9054264 C100.103683,38.623827 99.1461119,38.4230899 98.7998023,39.1685834 C98.6306074,39.5345917 98.6550867,40.1197793 99.0143558,41.0064272 C99.6652162,42.6094865 99.5658592,42.7690831 99.4679421,42.9300984 L99.4679421,42.9300984 Z M98.5161309,45.3162452 C98.1266226,45.1084149 97.8004725,44.9339226 97.1258528,46.7958831 C96.9408184,47.3002085 96.5930689,48.0215852 95.9400486,47.6832403 L95.9400486,47.6839497 C95.4828624,47.446328 94.7528044,46.4596663 94.9522384,46.002156 C95.0854344,45.7198473 94.7564043,45.4219336 94.3913753,45.7425455 C94.1595423,45.9447012 93.7361951,46.3170933 93.376926,46.4433519 C93.0817349,46.5469124 92.8556617,46.2802087 93.0003773,46.158206 C93.3373272,45.8737694 93.6181187,45.6347291 92.0932047,44.3522816 C91.2695496,43.6585683 91.2033116,43.0194725 92.2890388,42.5945908 C92.8931006,42.3590972 93.6044391,42.3073169 93.8269124,42.5116006 C94.0753049,42.7705018 94.3272973,42.5229497 94.3460167,42.2030471 C94.3647361,41.8994589 94.3971352,41.3419347 94.5605702,41.0000433 C94.6944862,40.7226998 95.0458356,40.7503633 95.032876,40.9425885 C94.999037,41.37811 94.9709579,41.7419902 96.9688976,41.5880682 C97.7875129,41.5249388 98.21446,41.6980125 98.3894147,41.9611696 C98.7191647,42.4598204 98.1503819,43.5755781 97.6535969,43.5755781 C97.4901618,43.5755781 97.3569658,43.7075113 97.3569658,43.8685265 C97.3569658,43.9848547 97.4268037,44.0869965 97.5297606,44.1331022 L97.5333605,44.1331022 L97.6298376,44.1834638 C97.9531079,44.3501536 98.4009343,44.5742982 98.6550867,44.8672467 C98.8581205,45.1006124 98.6889256,45.4070379 98.5161309,45.3162452 L98.5161309,45.3162452 Z M91.0341167,46.1007512 L91.0341167,46.1007512 C90.624449,46.1355078 90.494133,45.7496386 90.6712476,45.4623647 C91.3055485,44.4359812 89.6402387,42.4931583 90.0347868,41.6398484 C90.1384637,41.4178318 90.4545342,41.4490418 90.6539681,41.4916009 L90.6633279,41.4930195 C91.1039546,41.5880682 91.5913798,41.8625744 91.8584918,42.1406271 C90.4998928,42.7917813 90.6431685,43.8983179 91.7080163,44.7934776 C92.1918417,45.1992076 92.4207948,45.4091659 92.5338314,45.5311686 C92.1047244,45.7475107 91.4992226,46.0617387 91.0341167,46.1007512 L91.0341167,46.1007512 Z M92.1277637,40.6815594 C92.8031033,40.0921159 93.4633234,40.3517264 94.3424168,39.3374012 C94.8428017,38.7593068 95.2099906,38.5606977 95.463423,38.5890704 C95.7463745,38.6224083 95.8982899,39.0061495 95.9623679,39.2359687 C96.1092435,39.7700854 96.0811643,40.43117 95.89253,40.7574564 C95.8795704,40.7801546 95.6110185,41.202199 95.627578,40.9801824 C95.6930961,40.1275818 94.4734529,39.8154817 94.0263464,40.7446887 C93.8643512,41.0780683 93.8038731,41.5206829 93.7757939,41.8661209 C93.4258845,41.7880959 92.9737381,41.801573 92.5359913,41.9015869 C91.9204099,41.202199 91.8995305,40.8815871 92.1277637,40.6815594 L92.1277637,40.6815594 Z M93.7851536,38.2571094 L93.7851536,38.2571094 C93.9248294,38.4408229 94.1012241,38.5273597 94.2970582,38.5422554 C94.1674621,38.6585836 94.0321062,38.7961913 93.8924304,38.9572066 C93.6253185,39.2650507 93.2286104,39.470753 92.8427021,39.6473733 C91.6835371,39.2877489 93.2264505,38.2961219 93.7851536,38.2571094 L93.7851536,38.2571094 Z M92.2444001,37.5704893 L92.2444001,37.5704893 C91.8340125,37.6045366 91.7044164,37.2186674 91.8808111,36.9335215 C92.515112,35.9057193 90.8498022,33.9628964 91.2450703,33.1102958 C91.5085823,32.5407132 92.8686213,33.4011163 93.0680553,33.6110745 C91.7101763,34.2615194 91.852732,35.3687653 92.9175798,36.2632157 C93.4014052,36.6703644 93.640438,36.8881251 93.7534746,37.0108372 C93.3625264,37.0718385 92.8895007,37.5172904 92.2444001,37.5704893 L92.2444001,37.5704893 Z M93.3394871,32.1520068 C93.937789,31.6292392 94.865121,31.6029944 95.5541403,30.8078486 C97.2662486,28.8359437 97.5866389,31.2880571 96.9336186,32.5187244 C96.8335416,32.5066659 96.8357016,32.4818398 96.8378615,32.4541764 C96.9033795,31.6015758 95.6837363,31.2901851 95.2359099,32.2186827 C95.0739147,32.5527716 95.0141565,32.9953863 94.9860774,33.340115 C94.636168,33.2627993 94.1840216,33.2748577 93.7455548,33.3755809 C93.1306934,32.6733557 93.109814,32.3527439 93.3394871,32.1520068 L93.3394871,32.1520068 Z M99.6018581,33.4273611 C99.9330481,33.9260119 99.3628253,35.0424789 98.8660403,35.0424789 C98.5593296,35.0424789 98.3994944,35.4262201 98.8394011,35.6517833 C99.1612314,35.8170545 99.6220175,36.0560947 99.8653701,36.3362755 C100.068404,36.5696412 99.8970492,36.8760667 99.7256944,36.7852739 C98.2655784,36.0043145 98.478692,40.7723521 96.7017856,38.7890981 C96.3065175,38.3479022 96.0451654,37.7428537 96.1618019,37.4711847 C96.2409995,37.3037856 96.1452424,37.1115604 95.9724476,37.0647454 L95.9702877,37.0647454 L95.9645279,37.0626174 L95.9515683,37.0590708 C95.8003728,37.032826 95.7254951,37.1016299 95.6030988,37.2094463 C95.3734257,37.411602 94.9486385,37.7839941 94.5886494,37.9102528 C94.2934583,38.0138132 94.0673851,37.7449816 94.2121008,37.6243975 C94.5490506,37.3413795 94.8298421,37.1016299 93.3056481,35.8184731 C92.481273,35.1254691 92.415755,34.4863733 93.5007622,34.0614917 C94.104824,33.825998 94.8168825,33.7742178 95.0386358,33.9785014 C95.2870283,34.2374026 95.5390207,33.9891412 95.5577401,33.669948 C95.5750196,33.3663597 95.6088586,32.8081262 95.7722937,32.4676534 C95.9062096,32.1888913 96.259719,32.2165548 96.2445994,32.4101987 C96.1337228,33.8408937 98.9466779,32.4378621 99.6018581,33.4273611 L99.6018581,33.4273611 Z M99.1533116,31.0986691 C99.7573734,31.5916453 99.7804127,32.5641207 100.954697,33.2606713 C101.650916,33.6742039 101.905069,34.0480146 101.893549,34.3622426 C101.86547,35.1275971 100.314637,35.8078333 99.5298603,35.3574162 C100.147602,34.86444 100.568789,33.8203234 100.100083,33.1102958 C99.571619,32.3130221 98.4520528,32.457723 97.618318,32.5073753 C97.8011924,32.1555534 98.6795659,30.7113813 99.1533116,31.0986691 L99.1533116,31.0986691 Z M101.409724,30.536889 C100.838061,30.8121045 100.329756,31.3008248 100.441353,31.985317 C100.162001,31.5994478 99.904249,30.995818 99.5809787,30.695067 L99.5773788,30.6759154 C99.2764279,29.2062079 100.920858,30.0290171 101.409724,30.536889 L101.409724,30.536889 Z M103.893649,27.7343724 C105.474721,25.9142616 105.888708,28.0407979 105.4956,29.0473206 C105.48768,29.0671815 105.15649,29.643148 105.17737,29.3785722 C105.242888,28.5259716 104.023965,28.2145809 103.576138,29.1430786 C103.413423,29.4771675 103.353665,29.9197821 103.325586,30.2645108 C102.975676,30.1871951 102.52425,30.1999628 102.085063,30.2999767 C100.581749,28.5812985 102.817281,28.9763888 103.893649,27.7343724 L103.893649,27.7343724 Z M103.651016,37.1073045 C104.151401,36.5285007 104.51859,36.3306009 104.772742,36.3582643 C105.301926,36.4213937 105.388323,37.5648148 105.352325,37.964161 C105.335045,38.149293 105.267367,38.5493486 105.152891,38.7437018 C105.071533,38.8813095 104.923218,38.8976238 104.934017,38.7536322 C105.000255,37.9010316 103.780612,37.5896409 103.332786,38.5181386 C103.17151,38.8522275 103.111032,39.2948421 103.082953,39.6395708 C102.734484,39.5622551 102.280897,39.5743135 101.84243,39.6750367 C100.979177,38.6848284 101.170691,38.4996963 102.18874,38.0436046 C102.689845,37.81946 103.248548,37.5690707 103.651016,37.1073045 L103.651016,37.1073045 Z M100.915098,35.9546622 C101.365085,35.8099613 101.827311,35.5538974 102.138342,35.1964009 C102.623607,35.8078333 103.491181,35.2609489 103.951967,34.8999059 C104.027565,35.2049128 104.17948,35.5354551 104.383234,35.8262756 C104.036924,35.9369293 103.641656,36.2178193 103.19743,36.7278192 C102.977116,36.9810458 102.668966,37.1668872 102.350735,37.3229372 C102.501211,36.7221446 102.257138,36.3774159 100.915098,35.9546622 L100.915098,35.9546622 Z M106.522289,29.9814928 L106.522289,29.9814928 C107.104032,29.9360964 108.052243,29.9680157 108.047203,30.7447193 C108.042883,31.1561239 107.642575,31.9690027 107.205549,31.9690027 C107.042114,31.9690027 106.908198,32.1002266 106.908198,32.2612418 C106.908198,32.3782793 106.980195,32.4818398 107.081712,32.5265269 L107.083152,32.5286548 L107.181069,32.5783071 C107.50506,32.7428689 107.969446,32.9882931 108.207038,33.2627993 C108.410072,33.496165 108.238717,33.8018812 108.067363,33.7110884 C107.113391,33.2010886 106.829,34.9382091 106.526609,35.5489321 C106.522289,35.555316 106.518689,35.5631185 106.515089,35.570921 C106.296936,35.996512 105.986625,36.3362755 105.49344,36.0809209 C105.036254,35.8432992 104.306196,34.8566375 104.50563,34.3977085 C104.648186,34.0671662 104.257238,33.8635919 103.944767,34.1373887 C103.705734,34.3466376 102.735204,35.2623676 102.51417,34.6587377 C102.412653,34.3785569 103.556699,34.4948851 101.52636,32.7840094 C100.670306,32.063342 100.790542,31.3972921 101.838831,30.9880155 C102.442892,30.7525218 103.154231,30.7007416 103.375984,30.9043159 C103.624377,31.1639264 103.877089,30.915665 103.895809,30.5964718 C103.912368,30.2921742 103.946207,29.73465 104.110362,29.3934679 C104.243558,29.1154151 104.597787,29.1430786 104.582668,29.3360131 C104.552429,29.7715346 104.52363,30.1354149 106.522289,29.9814928 L106.522289,29.9814928 Z M107.4957,28.0251929 L107.4957,28.0251929 C108.099042,28.5181691 108.122081,29.4899352 109.296366,30.1871951 C111.571497,31.5363185 108.925577,32.8904071 107.871529,32.281812 C108.315755,31.9257343 108.637585,31.3164298 108.641185,30.7468472 C108.649105,29.5715068 107.463301,29.3211175 106.479091,29.3977238 C106.276057,29.4119102 106.104702,29.4253872 105.959986,29.4324804 C106.140701,29.0820772 107.021234,27.6379051 107.4957,28.0251929 L107.4957,28.0251929 Z M110.112821,34.1232024 L110.112821,34.1232024 C110.022104,34.4601286 109.778031,34.8772077 109.649875,35.2311575 C109.320845,35.7822979 109.48212,37.2874713 108.895338,37.5768732 C108.615266,37.7137716 108.223598,37.4541611 108.014804,37.2853433 C107.48418,36.8512405 107.036354,36.15469 107.070193,35.7744954 C107.213468,35.4858028 107.631056,34.1451912 107.781531,34.2246349 C108.412232,34.5622704 109.014134,33.906151 108.921977,33.38693 C109.975305,33.6905182 110.182659,33.8664291 110.112821,34.1232024 L110.112821,34.1232024 Z M105.813111,36.7554826 C106.130621,36.7576105 106.407813,36.6235494 106.633886,36.4072073 C106.690044,36.5419778 106.763482,36.6788762 106.846279,36.816484 C106.595727,36.9108233 106.304136,37.1222001 105.941267,37.4818245 C105.928307,37.2356911 105.887988,36.9909763 105.813111,36.7554826 L105.813111,36.7554826 Z M106.232858,38.7706559 C106.029824,38.7848422 105.858469,38.7983193 105.713754,38.8054125 C105.895908,38.4528813 106.776442,37.0094185 107.248747,37.3967063 C107.851369,37.8896825 107.875128,38.8607393 109.049413,39.5579992 C109.745632,39.9715318 109.999784,40.3460518 109.988265,40.6595705 C109.983225,40.807818 109.914827,40.952519 109.80755,41.0837429 C109.325885,41.676733 108.309995,42.0498344 107.625296,41.6547441 C107.881608,41.4511697 108.105521,41.1504188 108.242317,40.8227137 C108.874458,39.3132844 107.630336,38.6628395 106.232858,38.7706559 L106.232858,38.7706559 Z M111.292145,36.9668594 L111.292865,36.9668594 C109.785231,36.9512544 109.409402,37.9989176 109.950826,39.2707253 C109.998344,39.3799603 110.035783,39.4856487 110.067462,39.5899185 C109.886748,39.4118796 109.652035,39.2359687 109.356124,39.0593484 C108.955816,38.8224361 108.677184,38.4961497 108.458311,38.1734099 C108.701663,38.2287367 108.940696,38.213841 109.16245,38.104606 C109.988265,37.6988759 109.898267,36.4412546 110.13514,35.6595858 C110.618966,35.7369015 111.154629,36.5398498 111.292145,36.9668594 L111.292145,36.9668594 Z M112.201478,35.7837165 C112.976894,35.5815608 113.817829,35.9667206 114.79268,35.5652465 C115.167068,35.4091964 116.164238,35.0183621 116.303914,35.6652603 C116.572466,36.9122419 114.954675,37.9861498 115.189388,37.6024086 C115.637934,36.8703921 114.691163,36.0511295 113.868948,36.6824228 C113.570877,36.9108233 113.315284,37.2796688 113.13313,37.5747452 C112.856658,37.3506006 112.44627,37.1612126 112.007804,37.0576522 C111.780291,36.1582366 111.907727,35.8617415 112.201478,35.7837165 L112.201478,35.7837165 Z M118.999513,39.836052 L119.000233,39.836052 C118.360172,38.8366225 118.75904,37.9563585 118.41849,37.1853295 C118.207537,36.7065396 117.76907,36.5476523 116.668943,36.9143699 C116.851098,36.5043839 116.979254,35.9880002 116.882777,35.5446762 C116.640144,34.423244 115.354983,34.6991688 114.563007,35.0254552 C113.740791,35.3652187 112.832179,35.0148155 112.048842,35.2183898 C111.698933,35.3091826 111.446941,35.4921867 111.343264,35.8596136 C111.091271,35.5411296 110.737762,35.2162619 110.338894,35.1034803 C110.455531,34.8346486 110.611766,34.5466654 110.686644,34.2693219 C110.850079,33.6557616 110.613206,33.306777 109.254607,32.8804767 C111.119351,32.281812 111.408782,30.7581963 109.600916,29.6842884 C108.571347,29.074984 108.528149,28.1124391 107.871529,27.5747758 C107.464741,27.2435241 107.000355,27.2931764 106.185339,28.1067645 C106.074463,26.0752769 104.682025,25.9249014 103.442222,27.3527592 C102.738083,28.1620913 100.704145,28.3330371 100.948937,29.5268198 C100.023045,29.0912983 98.8487608,29.1338574 98.9488378,30.4631199 C98.6586866,30.5021324 98.3066172,30.7191838 97.8436712,31.1823687 C97.7327945,29.1508811 96.3403565,29.0005056 95.1005539,30.4283633 C94.5224114,31.0915759 93.5497207,31.1837873 92.943499,31.7143574 C92.6727872,31.9498511 92.5302315,32.2279039 92.6072692,32.6024239 C92.0089672,32.3208246 91.0513961,32.1207968 90.7050866,32.865581 C90.1895822,33.9785014 91.7792942,35.9688486 91.3725065,36.6292239 C90.9419594,37.3293211 91.322108,38.2344112 92.2911987,38.1528396 C92.4207948,38.1421999 92.5539908,38.1159551 92.6900667,38.0804892 C92.0780852,38.4805447 91.3689066,39.3600994 92.1666425,39.9601827 C92.0032074,40.0453009 91.8563318,40.134675 91.7339355,40.24391 C91.4632237,40.4815316 91.319948,40.7574564 91.3969857,41.1319765 C90.7950839,40.8461212 89.8389527,40.651768 89.4948031,41.3951336 C88.9792987,42.5073447 90.5690107,44.4991105 90.162943,45.1580672 C89.7323959,45.859583 90.1118245,46.7639638 91.0809153,46.6823922 C91.2112313,46.6710431 91.3465872,46.6455077 91.4819431,46.6079138 C91.4113853,46.6547288 91.3386675,46.7079277 91.2659497,46.7668011 C91.4171451,46.7235327 91.5733804,46.6852295 91.7432953,46.6483449 C91.9974476,46.5930181 92.217041,46.6831015 92.3840759,46.8278025 C92.4560737,46.8051043 92.5215918,46.7894993 92.5755901,46.7859527 C92.8254226,47.116495 93.1904516,47.1292627 93.5785199,46.9937829 C93.8657912,46.8923504 94.1581024,46.6951599 94.4007351,46.5043533 C94.5605702,47.149833 95.0559153,47.8853961 95.6650169,48.2003334 L95.6743766,48.2060079 L95.6729367,48.2251595 C95.8903701,48.2003334 96.0898041,48.2748118 96.2503592,48.4188034 C96.2525192,48.3982332 96.2561191,48.377663 96.257559,48.3563834 C96.5361906,48.357802 96.7773833,48.2436018 96.987617,48.0726561 C96.9955368,48.0556324 96.9969767,48.0386088 97.0070564,48.0230038 C97.1740914,47.7633933 97.3872049,47.5633655 97.5959986,47.3498607 L97.5204009,47.3796521 C97.6636766,47.0902502 98.0834239,45.7496386 98.2317394,45.8297916 C98.8624404,46.1667178 99.4629023,45.5127263 99.374345,44.9935053 C99.5867386,45.0566347 99.8012921,45.1254385 100.008646,45.2048822 C99.9726469,45.2829072 99.9460077,45.3630602 99.9316081,45.4425038 C99.8675301,45.7737555 100.002166,46.0454244 100.255598,46.2426149 C100.305997,46.2475801 100.353515,46.2411962 100.407514,46.2596385 C100.794862,46.3965369 101.417643,46.4766899 101.836671,46.7029624 L101.923788,46.6788456 C101.930988,46.6788456 101.934588,46.6809736 101.942507,46.6809736 C102.794962,46.7164395 103.022475,47.0569123 103.238468,47.3810707 C103.759013,48.1655768 104.214759,48.3485809 104.584828,48.2010427 C104.820981,48.0222945 105.003135,47.8165922 105.193929,47.5810985 C105.191049,47.571168 105.192489,47.5584003 105.18817,47.5484699 C105.388323,47.147705 105.51936,46.6270654 105.562558,46.1227401 C105.880789,46.124868 106.15942,45.9929348 106.386933,45.7744648 C106.467571,45.9631435 106.715243,46.4788179 106.978755,46.9001529 C107.071633,46.9334909 107.16307,46.9831432 107.250907,47.054075 C107.398503,47.1732405 107.4921,47.292406 107.668495,47.368303 C107.676414,47.3725589 107.679294,47.3782335 107.687934,47.3831987 C107.696574,47.3647564 107.710253,47.3654657 107.717453,47.3413489 C108.876618,48.0471206 109.587957,47.1363559 109.727633,45.826245 C109.753552,45.5737277 109.80107,45.3460365 109.857229,45.1403342 C109.898267,45.2460227 109.955146,45.353839 110.037943,45.4630741 C110.186259,45.6588459 110.336734,45.7780114 110.48937,45.8425593 C110.47353,45.8610016 110.46057,45.8822812 110.444731,45.9000141 C110.519609,45.8957582 110.594486,45.8936303 110.676564,45.9149098 C110.80904,45.9461198 110.944396,45.9588875 111.080472,45.9546316 C111.098471,45.9546316 111.110711,45.9624341 111.12727,45.9638528 C111.15103,45.9610155 111.172629,45.9539223 111.196388,45.9517944 C111.350464,45.7822673 111.496619,45.6021004 111.655014,45.4403759 C111.664374,45.4311547 111.666534,45.420515 111.674454,45.4105845 C111.966045,45.1162174 112.216597,44.7452439 112.391552,44.4650632 C112.675224,44.6097641 112.984094,44.6133107 113.286485,44.5189714 C113.251206,45.0289713 113.354883,45.6538807 113.576636,46.1525314 C114.280775,47.731474 115.4565,47.25694 116.250636,46.0397498 C116.651664,45.4233522 117.09949,45.0672744 117.43932,44.7970242 C118.527207,43.9316558 118.250735,43.5025183 117.242046,42.5314615 C119.252225,42.8393057 120.0946,41.547637 118.999513,39.836052 L118.999513,39.836052 Z" id="Fill-26" fill="#B19F9C"></path>
                                    <path d="M103.980977,56.3418803 C104.219057,56.3418803 104.411115,56.4900388 104.411115,56.6721785 L104.411115,58.6519282 C104.411115,58.8347476 104.219057,58.982906 103.980977,58.982906 C103.743782,58.982906 103.551724,58.8347476 103.551724,58.6519282 L103.551724,56.6721785 C103.551724,56.4900388 103.743782,56.3418803 103.980977,56.3418803 Z M102.210862,57.2222222 C102.448943,57.2222222 102.641,57.3802416 102.641,57.5737791 L102.641,58.6298994 C102.641,58.8248866 102.448943,58.982906 102.210862,58.982906 C101.973667,58.982906 101.781609,58.8248866 101.781609,58.6298994 L101.781609,57.5737791 C101.781609,57.3802416 101.973667,57.2222222 102.210862,57.2222222 Z M103.980977,49.2991453 C104.219057,49.2991453 104.411115,49.4571647 104.411115,49.651427 L104.411115,50.7075473 C104.411115,50.9018097 104.219057,51.0598291 103.980977,51.0598291 C103.743782,51.0598291 103.551724,50.9018097 103.551724,50.7075473 L103.551724,49.651427 C103.551724,49.4571647 103.743782,49.2991453 103.980977,49.2991453 Z M102.210862,54.5811966 C102.448943,54.5811966 102.641,54.739281 102.641,54.9328982 L102.641,55.9894535 C102.641,56.184521 102.448943,56.3418803 102.210862,56.3418803 C101.973667,56.3418803 101.781609,56.184521 101.781609,55.9894535 L101.781609,54.9328982 C101.781609,54.739281 101.973667,54.5811966 102.210862,54.5811966 Z M103.980977,51.9401709 C104.219057,51.9401709 104.411115,52.0838733 104.411115,52.2598758 L104.411115,55.1411744 C104.411115,55.3184953 104.219057,55.4615385 103.980977,55.4615385 C103.743782,55.4615385 103.551724,55.3184953 103.551724,55.1411744 L103.551724,52.2598758 C103.551724,52.0838733 103.743782,51.9401709 103.980977,51.9401709 Z M102.210862,49.2991453 C102.448943,49.2991453 102.641,49.4421885 102.641,49.6188501 L102.641,52.4994896 C102.641,52.6768104 102.448943,52.8205128 102.210862,52.8205128 C101.973667,52.8205128 101.781609,52.6768104 101.781609,52.4994896 L101.781609,49.6188501 C101.781609,49.4421885 101.973667,49.2991453 102.210862,49.2991453 Z M98.6706322,56.3418803 C98.9087126,56.3418803 99.1007701,56.4900388 99.1007701,56.6721785 L99.1007701,58.6519282 C99.1007701,58.8347476 98.9087126,58.982906 98.6706322,58.982906 C98.4334368,58.982906 98.2413793,58.8347476 98.2413793,58.6519282 L98.2413793,56.6721785 C98.2413793,56.4900388 98.4334368,56.3418803 98.6706322,56.3418803 Z M96.9014023,51.9401709 C97.1385977,51.9401709 97.3315402,52.0617898 97.3315402,52.210745 L97.3315402,55.1909644 C97.3315402,55.3410354 97.1385977,55.4615385 96.9014023,55.4615385 C96.6633218,55.4615385 96.4712644,55.3410354 96.4712644,55.1909644 L96.4712644,52.210745 C96.4712644,52.0617898 96.6633218,51.9401709 96.9014023,51.9401709 Z M96.9014023,56.3418803 C97.1385977,56.3418803 97.3315402,56.5112665 97.3315402,56.7187257 L97.3315402,58.6052836 C97.3315402,58.8142968 97.1385977,58.982906 96.9014023,58.982906 C96.6633218,58.982906 96.4712644,58.8142968 96.4712644,58.6052836 L96.4712644,56.7187257 C96.4712644,56.5112665 96.6633218,56.3418803 96.9014023,56.3418803 Z M98.6706322,49.2991453 C98.9087126,49.2991453 99.1007701,49.4571647 99.1007701,49.6507022 L99.1007701,50.7068225 C99.1007701,50.9018097 98.9087126,51.0598291 98.6706322,51.0598291 C98.4334368,51.0598291 98.2413793,50.9018097 98.2413793,50.7068225 L98.2413793,49.6507022 C98.2413793,49.4571647 98.4334368,49.2991453 98.6706322,49.2991453 Z M96.9014023,49.2991453 C97.1385977,49.2991453 97.3315402,49.4967916 97.3315402,49.7388629 L97.3315402,50.6201114 C97.3315402,50.8630894 97.1385977,51.0598291 96.9014023,51.0598291 C96.6633218,51.0598291 96.4712644,50.8630894 96.4712644,50.6201114 L96.4712644,49.7388629 C96.4712644,49.4967916 96.6633218,49.2991453 96.9014023,49.2991453 Z M98.6706322,51.9401709 C98.9087126,51.9401709 99.1007701,52.0838733 99.1007701,52.260535 L99.1007701,55.1411744 C99.1007701,55.3184953 98.9087126,55.4615385 98.6706322,55.4615385 C98.4334368,55.4615385 98.2413793,55.3184953 98.2413793,55.1411744 L98.2413793,52.260535 C98.2413793,52.0838733 98.4334368,51.9401709 98.6706322,51.9401709 Z M109.291322,56.3418803 C109.529402,56.3418803 109.72146,56.4900388 109.72146,56.6721785 L109.72146,58.6519282 C109.72146,58.8347476 109.529402,58.982906 109.291322,58.982906 C109.054126,58.982906 108.862069,58.8347476 108.862069,58.6519282 L108.862069,56.6721785 C108.862069,56.4900388 109.054126,56.3418803 109.291322,56.3418803 Z M107.521207,57.2222222 C107.759287,57.2222222 107.951345,57.3802416 107.951345,57.5737791 L107.951345,58.6298994 C107.951345,58.8248866 107.759287,58.982906 107.521207,58.982906 C107.284011,58.982906 107.091954,58.8248866 107.091954,58.6298994 L107.091954,57.5737791 C107.091954,57.3802416 107.284011,57.2222222 107.521207,57.2222222 Z M109.291322,49.2991453 C109.529402,49.2991453 109.72146,49.4571647 109.72146,49.651427 L109.72146,50.7075473 C109.72146,50.9018097 109.529402,51.0598291 109.291322,51.0598291 C109.054126,51.0598291 108.862069,50.9018097 108.862069,50.7075473 L108.862069,49.651427 C108.862069,49.4571647 109.054126,49.2991453 109.291322,49.2991453 Z M107.521207,54.5811966 C107.759287,54.5811966 107.951345,54.739281 107.951345,54.9328982 L107.951345,55.9894535 C107.951345,56.184521 107.759287,56.3418803 107.521207,56.3418803 C107.284011,56.3418803 107.091954,56.184521 107.091954,55.9894535 L107.091954,54.9328982 C107.091954,54.739281 107.284011,54.5811966 107.521207,54.5811966 Z M109.291322,51.9401709 C109.529402,51.9401709 109.72146,52.0838733 109.72146,52.2598758 L109.72146,55.1411744 C109.72146,55.3184953 109.529402,55.4615385 109.291322,55.4615385 C109.054126,55.4615385 108.862069,55.3184953 108.862069,55.1411744 L108.862069,52.2598758 C108.862069,52.0838733 109.054126,51.9401709 109.291322,51.9401709 Z M107.521207,49.2991453 C107.759287,49.2991453 107.951345,49.4421885 107.951345,49.6188501 L107.951345,52.4994896 C107.951345,52.6768104 107.759287,52.8205128 107.521207,52.8205128 C107.284011,52.8205128 107.091954,52.6768104 107.091954,52.4994896 L107.091954,49.6188501 C107.091954,49.4421885 107.284011,49.2991453 107.521207,49.2991453 Z" id="Combined-Shape" fill="#B19F9C"></path>
                                    <path d="M110.838678,59.0619182 C110.838678,59.5382418 109.823625,60.0713365 108.465101,60.0713365 C107.355105,60.0713365 106.475485,59.7147862 106.190656,59.3250039 C106.212996,59.2398473 106.228354,59.1526136 106.228354,59.0619182 L106.228354,47.8814682 C106.256977,47.9056998 106.284203,47.9299313 106.313524,47.9527783 C106.322599,47.9597016 106.332373,47.9659325 106.341448,47.9721635 C106.407769,48.0227037 106.476184,48.0697822 106.548089,48.1147837 C106.575315,48.1320919 106.603938,48.1466309 106.631862,48.1632468 C106.687711,48.1957864 106.744258,48.2283259 106.803598,48.2580961 C106.837805,48.2747121 106.872711,48.2899433 106.908314,48.3065593 C106.964163,48.3321755 107.02071,48.3570994 107.078653,48.3799464 C107.116351,48.3951776 107.155445,48.4090242 107.19454,48.4235632 C107.252483,48.4436408 107.311822,48.463026 107.372558,48.4810266 C107.41235,48.4927963 107.452841,48.5045659 107.494029,48.5156432 C107.556859,48.5315668 107.621085,48.5461057 107.685311,48.55926 C107.725802,48.567568 107.765594,48.575876 107.806783,48.5827993 C107.87799,48.5952612 107.950594,48.6042615 108.023895,48.6125695 C108.060197,48.6167235 108.094404,48.6222621 108.131404,48.6250315 C108.241008,48.6340318 108.352007,48.6395704 108.465101,48.6395704 C108.578195,48.6395704 108.689893,48.6340318 108.799496,48.6250315 C108.835798,48.6222621 108.871402,48.6167235 108.907005,48.6125695 C108.979609,48.6042615 109.052212,48.5952612 109.124118,48.5827993 C109.165306,48.575876 109.205099,48.567568 109.245589,48.55926 C109.310513,48.5461057 109.374041,48.5315668 109.436173,48.5156432 C109.47806,48.5045659 109.51855,48.4927963 109.559041,48.4810266 C109.619078,48.463026 109.67772,48.4443331 109.735663,48.4235632 C109.775455,48.4090242 109.814549,48.3951776 109.852945,48.379254 C109.91019,48.3570994 109.966039,48.3328679 110.02119,48.3079439 C110.056794,48.2906357 110.093794,48.2747121 110.128699,48.2574038 C110.185246,48.2283259 110.240397,48.197171 110.294849,48.1660161 C110.324868,48.1480155 110.355585,48.1320919 110.384208,48.1140913 C110.451226,48.0718591 110.516151,48.02755 110.578282,47.9804715 C110.591547,47.9707789 110.606207,47.9624709 110.618773,47.9520859 C110.692773,47.8953148 110.762584,47.835082 110.828904,47.7720799 C110.832395,47.7693106 110.835885,47.7672336 110.838678,47.7644643 L110.838678,59.0619182 Z M103.176214,60.0713365 C101.818389,60.0713365 100.804034,59.5382418 100.804034,59.0619182 L100.804034,58.7932939 L100.804034,47.7644643 C100.806826,47.7672336 100.809619,47.7686183 100.812411,47.7713876 C100.87943,47.8343897 100.949939,47.8953148 101.024637,47.9527783 C101.033712,47.9597016 101.043486,47.9659325 101.052561,47.9721635 C101.118882,48.0227037 101.187995,48.0697822 101.2599,48.1147837 C101.286428,48.1320919 101.315051,48.1466309 101.342975,48.1632468 C101.399522,48.1957864 101.456069,48.2283259 101.515409,48.2580961 C101.548918,48.2747121 101.584522,48.2899433 101.619427,48.3065593 C101.675276,48.3321755 101.731823,48.3570994 101.790464,48.3799464 C101.828162,48.3951776 101.866558,48.4090242 101.905652,48.4235632 C101.964294,48.4436408 102.023633,48.463026 102.083671,48.4810266 C102.124161,48.4927963 102.164652,48.5045659 102.205142,48.5156432 C102.267972,48.5315668 102.332198,48.5461057 102.396424,48.55926 C102.436915,48.567568 102.476707,48.575876 102.517896,48.5827993 C102.589801,48.5952612 102.662405,48.6042615 102.735706,48.6125695 C102.77131,48.6167235 102.806215,48.6222621 102.842517,48.6250315 C102.95212,48.6340318 103.063818,48.6395704 103.176214,48.6395704 C103.290006,48.6395704 103.401006,48.6340318 103.510609,48.6250315 C103.547609,48.6222621 103.582514,48.6167235 103.618118,48.6125695 C103.69142,48.6042615 103.764023,48.5952612 103.835231,48.5827993 C103.876419,48.575876 103.916211,48.567568 103.9574,48.55926 C104.021626,48.5461057 104.085154,48.5315668 104.147984,48.5156432 C104.189173,48.5045659 104.229663,48.4927963 104.270852,48.4810266 C104.330191,48.463026 104.388832,48.4443331 104.446776,48.4235632 C104.486568,48.4090242 104.52636,48.3951776 104.564756,48.379254 C104.622001,48.3570994 104.677152,48.3328679 104.732303,48.3079439 C104.768605,48.2906357 104.804906,48.2747121 104.839812,48.2574038 C104.897057,48.2283259 104.95151,48.197171 105.005962,48.1660161 C105.035981,48.1480155 105.066698,48.1320919 105.095321,48.1140913 C105.163037,48.0718591 105.227263,48.02755 105.289395,47.9804715 C105.302659,47.9707789 105.31732,47.9624709 105.329886,47.9520859 C105.359206,47.9299313 105.385735,47.9050074 105.414357,47.8814682 L105.414357,59.0619182 C105.414357,59.1526136 105.429716,59.2398473 105.452055,59.3250039 C105.167226,59.7147862 104.286908,60.0713365 103.176214,60.0713365 L103.176214,60.0713365 Z M100.12547,58.7932939 C100.12547,59.2696175 99.1111151,59.8013275 97.7525916,59.8013275 C96.394068,59.8013275 95.379015,59.2696175 95.379015,58.7932939 L95.379015,48.1674008 C95.3825055,48.1708625 95.3859961,48.1722471 95.3887885,48.1757088 C95.455109,48.2380185 95.5249201,48.2989436 95.599618,48.3557148 C95.6114859,48.3654074 95.6254481,48.3737154 95.637316,48.3820233 C95.7001459,48.4297942 95.7657683,48.4747957 95.8341832,48.5177202 C95.8628057,48.5357208 95.8935226,48.5516444 95.9228433,48.5689527 C95.9772959,48.6007999 96.0324466,48.6319548 96.0896917,48.6610327 C96.1245973,48.6783409 96.160899,48.6942645 96.1972008,48.7108805 C96.2523515,48.7364967 96.3075023,48.7607283 96.3647474,48.7828829 C96.4038416,48.7988065 96.4429358,48.8126531 96.4827281,48.827192 C96.5406713,48.8472696 96.5993126,48.8659626 96.658652,48.8846555 C96.6998405,48.8964251 96.740331,48.9081948 96.7822176,48.919272 C96.8443495,48.9351957 96.9078775,48.9497346 96.9721037,48.9621966 C97.0125941,48.9705045 97.0530846,48.9795048 97.0949712,48.9864281 C97.1654804,48.9988901 97.2380839,49.0078904 97.3106874,49.015506 C97.3469892,49.01966 97.3825928,49.0251987 97.4188946,49.0286603 C97.528498,49.0376606 97.6401957,49.0431993 97.7525916,49.0431993 C97.8656855,49.0431993 97.9773832,49.0376606 98.0869866,49.0286603 C98.1232884,49.0251987 98.1581939,49.01966 98.1944957,49.015506 C98.2677973,49.0078904 98.3404008,48.9988901 98.4116081,48.9864281 C98.4527966,48.9795048 98.492589,48.9711969 98.5330794,48.9621966 C98.5973056,48.9497346 98.6615318,48.9351957 98.7236636,48.919272 C98.7655503,48.9081948 98.8053426,48.8964251 98.845833,48.8846555 C98.9065686,48.8666549 98.965908,48.8472696 99.0238512,48.8264997 C99.0629454,48.8126531 99.1013415,48.7988065 99.1397376,48.7835752 C99.1976808,48.7607283 99.2542278,48.7358044 99.3100767,48.7101881 C99.3456803,48.6935722 99.3805858,48.6783409 99.4147933,48.6610327 C99.4734346,48.6312624 99.5299815,48.5994152 99.5865285,48.5668757 C99.6137548,48.5502597 99.6430755,48.5350285 99.6696037,48.5177202 C99.7415091,48.473411 99.8106221,48.4256402 99.8769426,48.3757924 C99.886018,48.3695614 99.8957916,48.3633304 99.9041689,48.3564071 C99.9795649,48.2989436 100.050074,48.2380185 100.117093,48.1743241 C100.119885,48.1722471 100.122678,48.1701701 100.12547,48.1680931 L100.12547,58.7932939 Z M108.465101,47.9680095 C107.431897,47.9680095 106.552976,47.4965323 106.228354,46.8422797 L106.228354,46.6581197 L105.414357,46.6581197 L105.414357,46.8422797 C105.089736,47.4958399 104.210116,47.9680095 103.176214,47.9680095 C102.049463,47.9680095 101.107014,47.4058369 100.866864,46.6581197 L100.121281,46.6581197 C100.121281,46.669197 100.12547,46.6788896 100.12547,46.6899669 C100.12547,47.6169978 99.0615492,48.3709461 97.7525916,48.3709461 C96.444332,48.3709461 95.379015,47.6169978 95.379015,46.6899669 C95.379015,46.6788896 95.3839017,46.669197 95.3839017,46.6581197 L94.7053381,46.6581197 C94.7053381,46.669197 94.7011494,46.6788896 94.7011494,46.6899669 L94.7011494,46.6899669 L94.7011494,58.7932939 C94.7011494,59.7514797 96.0128995,60.4742731 97.7525916,60.4742731 C98.8723612,60.4742731 99.8127164,60.1731092 100.341884,59.7050935 C100.781694,60.3254219 101.85469,60.7435897 103.176214,60.7435897 C104.336474,60.7435897 105.303358,60.4216559 105.821356,59.9231777 C106.338656,60.4216559 107.305539,60.7435897 108.465101,60.7435897 C110.204793,60.7435897 111.517241,60.0207964 111.517241,59.0619182 L111.517241,46.6581197 L110.775848,46.6581197 C110.535698,47.4058369 109.593248,47.9680095 108.465101,47.9680095 L108.465101,47.9680095 Z" id="Fill-82" fill="#B19F9C"></path>
                                </g>
                                <rect id="Rectangle-3" stroke="#E86B7F" x="27.9367816" y="18.9871795" width="46.7931034" height="46.5384615"></rect>
                            </g>
                        </g>
                    </g>
                </g>
            </g>
        </g>
    </g>
</svg>