<?xml version="1.0" encoding="UTF-8"?>
<svg width="97px" height="85px" viewBox="0 0 97 85" version="1.1" xmlns="http://www.w3.org/2000/svg" xmlns:xlink="http://www.w3.org/1999/xlink">
    <!-- Generator: Sketch 45.2 (43514) - http://www.bohemiancoding.com/sketch -->
    <title>icon2</title>
    <desc>Created with Sketch.</desc>
    <defs></defs>
    <g id="Page-1" stroke="none" stroke-width="1" fill="none" fill-rule="evenodd">
        <g id="1-A---Home-M" transform="translate(-120.000000, -1128.000000)">
            <g id="How-it-works" transform="translate(58.000000, 771.000000)">
                <g id="Group" transform="translate(0.000000, 66.000000)">
                    <g id="step-2" transform="translate(0.000000, 285.000000)">
                        <g id="icon2" transform="translate(62.000000, 6.000000)">
                            <g transform="translate(0.415254, 0.000000)">
                                <polygon id="Path-2" fill="#F9DED9" points="15.779661 36.7378641 23.2542373 53.4368932 23.2542373 84.3300971 88.0338983 84.3300971 88.0338983 53.4256121 95.5084746 35.9029126 73.9152542 36.7378641 66.440678 51.7669903 58.9661017 35.9029126"></polygon>
                                <path d="M55.2288136,14.1941748 C55.2288136,14.1941748 53.0141243,14.1941748 48.5847458,14.1941748 L46.0932203,16.6990291 L46.0932203,19.2038835 L46.9237288,21.7087379 L48.5847458,23.3786408 L55.2288136,23.3786408 L55.2288136,20.8737864 L57.720339,18.368932 L55.2288136,16.6990291 C55.2288136,15.0291262 55.2288136,14.1941748 55.2288136,14.1941748 Z" id="Path-5" fill="#F9DED9"></path>
                                <path d="M44.0073662,63.4260379 C43.6881114,63.6444905 43.3829208,63.8954635 43.0988263,64.1662315 C42.9047419,63.8933426 42.5911128,63.5356177 42.1389525,63.2295013 C42.4047637,62.6858443 42.7683203,62.2164187 43.0313187,61.9138372 C43.3512766,62.2828736 43.7499934,62.8272375 44.0073662,63.4260379 L44.0073662,63.4260379 Z M45.8539806,67.7406526 C45.8539806,68.9629972 44.6395468,69.9576986 43.1480506,69.9576986 C42.6136153,69.9576986 42.1143403,69.8304447 41.6938242,69.6091643 C41.4048072,68.7869626 41.8857989,67.2832455 42.8730977,65.9378888 C43.7837472,64.6957492 44.9046548,63.8587012 45.8539806,63.6805457 L45.8539806,67.7406526 Z M40.443527,67.7406526 L40.443527,63.6261093 C41.6509287,63.8113345 42.2317754,64.637071 42.3970284,64.9191505 C42.2809997,65.0598368 42.1712999,65.2005231 42.0679288,65.3412093 C41.3963688,66.2567306 40.7824715,67.4529174 40.6376114,68.5663891 C40.5117378,68.3111743 40.443527,68.0326296 40.443527,67.7406526 L40.443527,67.7406526 Z M37.5477319,75.8212762 C35.2602084,75.4006313 33.7462097,72.6109427 33.2012264,71.4281883 C34.3706551,71.2012521 37.0034518,70.8520108 39.1348639,71.7526858 C39.9885539,72.1139455 40.440011,72.9919975 40.2993701,73.8856028 L36.1265561,72.270185 C35.8691833,72.1697958 35.5801664,72.2998776 35.4803114,72.5586272 C35.3811596,72.8173769 35.5098459,73.10794 35.7672187,73.2083292 L39.9273751,74.8187982 C39.4070039,75.6106003 38.5181538,75.9994317 37.5477319,75.8212762 L37.5477319,75.8212762 Z M42.6895614,60.8180396 C42.6375243,60.8668203 41.7887567,61.6713478 41.2430702,62.7890614 C40.8675592,62.6639283 40.4379014,62.5840412 39.9435488,62.5840412 C39.6671895,62.5840412 39.4428674,62.8088564 39.4428674,63.0874011 L39.4428674,67.7406526 C39.4428674,69.341931 40.7951291,70.6710275 42.557359,70.9184657 L42.5650942,74.7629478 L41.2465863,74.2518113 C41.3000298,74.0192194 41.3295644,73.7852136 41.3295644,73.5554496 C41.3295644,72.3889553 40.6594107,71.3065901 39.5230326,70.82656 C36.6145798,69.5971458 33.0626951,70.4059152 32.3798838,70.5812428 C32.1147758,70.6491115 31.9530388,70.9177587 32.0163272,71.1856989 C32.0282817,71.2337726 33.8186397,76.1584991 37.369118,76.8103219 C38.8057643,77.0740203 40.1608389,76.4285602 40.8752944,75.1857136 L42.5278244,75.825518 C42.5411853,75.8311738 42.5552494,75.8325877 42.5679071,75.8368295 L42.5707199,83.4218698 C42.8400471,83.4119723 43.1100775,83.4027817 43.3815144,83.3992469 C43.452538,83.3985399 43.5193424,83.4041956 43.5861468,83.4091444 C43.5966949,83.3002716 43.6121654,83.1956406 43.6346679,83.0966654 C43.6121654,83.103735 43.5938821,83.1079768 43.5706763,83.1150465 L43.5573155,70.9425025 C45.4088523,70.765054 46.853937,69.3970744 46.853937,67.7406526 L46.853937,63.1460793 C46.853937,62.880967 46.6478982,62.6611005 46.3841966,62.6448403 C45.8792959,62.6137337 45.3729888,62.7268483 44.8849651,62.9368173 C44.3456074,61.7420444 43.4244098,60.8689412 43.3702631,60.8180396 C43.1775852,60.6391772 42.8815362,60.6391772 42.6895614,60.8180396 L42.6895614,60.8180396 Z" id="Fill-1" fill="#E86B7F"></path>
                                <path d="M29.6404813,12.2531381 C29.1468319,12.047411 28.5800493,12.2828307 28.3754169,12.779121 C28.1707844,13.2754112 28.4056546,13.844519 28.899304,14.0502462 C29.3922502,14.2559734 29.9590328,14.0205536 30.1636653,13.5242633 C30.3682977,13.0279731 30.1334275,12.4588653 29.6404813,12.2531381" id="Fill-3" fill="#E86B7F"></path>
                                <g id="Group-7" transform="translate(0.000000, 0.492048)" fill="#E86B7F">
                                    <path d="M55.1810708,19.6005671 C54.8808026,19.1565923 54.5348261,18.7324126 54.1635343,18.3379255 C54.5376389,18.0678644 55.0298819,17.6323732 55.4518045,17.0024663 C56.1993106,17.3729166 56.8441489,17.8783974 57.2604458,18.2446059 C56.7527324,18.6892877 56.004523,19.2428422 55.1810708,19.6005671 L55.1810708,19.6005671 Z M49.2474333,22.1675614 C47.566072,22.1675614 46.1976365,20.4800331 46.1976365,18.4072082 C46.1976365,17.6627728 46.3741407,16.968532 46.6772218,16.3838709 C47.8079742,15.9823141 49.8760979,16.6518111 51.7269315,18.0240325 C53.4350147,19.2902089 54.5854568,20.8483624 54.8308751,22.1675614 L49.2474333,22.1675614 Z M49.2474333,14.646148 L54.9054148,14.646148 C54.6508548,16.3258997 53.5158832,17.1318411 53.1270112,17.3623121 C52.9350364,17.2004169 52.7402489,17.0484191 52.5475709,16.904905 C51.2881321,15.9710027 49.6426341,15.1169875 48.1110553,14.9169161 C48.4619542,14.7422954 48.8459037,14.646148 49.2474333,14.646148 L49.2474333,14.646148 Z M38.1339933,10.6220964 C38.7120272,7.44145549 42.5480064,5.33681712 44.175221,4.57824239 C44.4881469,6.20497161 44.9684354,9.86493561 43.7286863,12.8285379 C43.2322241,14.0148272 42.0248224,14.6411992 40.7963246,14.4460766 L43.0177468,8.64612589 C43.1548717,8.28769403 42.9776642,7.88613723 42.6211396,7.74757185 C42.2646151,7.60971344 41.8644918,7.78857589 41.727367,8.14630079 L39.5122736,13.9292843 C38.4230102,13.2060579 37.888575,11.9702809 38.1339933,10.6220964 L38.1339933,10.6220964 Z M32.7425262,17.8713278 C32.6173559,17.6634797 32.3937369,17.5362258 32.1518347,17.5362258 L31.485197,17.5362258 C31.4873066,17.531984 31.4901195,17.5277422 31.4915259,17.5242074 C32.3860017,16.0629083 33.0547489,15.4634009 33.4626074,15.2802967 C33.4745619,15.2873663 33.4844067,15.2972639 33.4963612,15.3043335 C33.526599,15.3205937 33.5582432,15.3326122 33.5891842,15.3439236 C33.8036615,15.9087896 34.1580764,16.8646079 34.4991305,17.8776905 C34.9470716,19.2110287 35.1770194,20.0671648 35.2930481,20.6143566 C33.8078807,19.6090507 32.7537775,17.8890019 32.7425262,17.8713278 L32.7425262,17.8713278 Z M30.2292742,19.9088044 C30.3544446,19.6387433 30.5189944,19.2986925 30.7095627,18.9261214 L31.77773,18.9268283 C32.0906559,19.3863563 32.7242429,20.2410785 33.5786361,21.0201552 C32.3930337,20.7409036 31.1047635,20.2686502 30.2292742,19.9088044 L30.2292742,19.9088044 Z M20.8232141,17.5333979 L20.8225109,17.5333979 C20.4413742,17.5333979 20.1312611,17.84517 20.1312611,18.2290527 C20.1312611,18.6129353 20.440671,18.9240005 20.8225109,18.9240005 L29.1625134,18.9261214 C28.8671676,19.5383541 28.6871473,19.9653617 28.6730832,19.9985891 C28.6716768,20.0035378 28.6709736,20.0084866 28.668864,20.0134354 C25.3427079,25.7426894 20.2233809,27.5143467 15.855076,27.2478205 L15.8585921,24.6723426 C15.8585921,24.2891669 15.5498854,23.9766879 15.1680455,23.9759809 L15.1673423,23.9759809 C14.7862056,23.9759809 14.4760925,24.287046 14.4753893,24.6709287 L14.4718733,27.0951158 C14.1793403,27.0463351 13.8917298,26.9904848 13.6104481,26.9254439 C10.8567002,26.2884673 8.12545486,24.1696896 5.94270885,21.3022347 C7.1915996,21.9957686 8.56847354,22.4284319 9.99597818,22.551444 C10.2681182,22.5747739 10.5381487,22.5867923 10.8060695,22.5867923 C12.849581,22.5867923 14.7397941,21.9144675 15.9746208,20.7253503 C17.6573885,19.1049838 18.03079,17.1926402 18.0476669,15.8734413 C18.065247,14.5514145 17.7263026,13.2322156 17.1306886,12.1724733 C19.3619557,12.0883443 20.9603389,11.2003948 22.2556412,10.4799962 C22.3646378,10.4191971 22.4715249,10.359105 22.5770055,10.3011338 C23.4792166,9.80484348 24.2351612,9.26967007 24.9664936,8.75075688 C26.4945564,7.66839164 27.7019581,6.81296254 29.4993482,6.84760388 C31.5618463,6.88719399 33.3043864,8.30466121 33.7354506,10.295478 C34.0068875,11.5475152 33.9126581,12.7811712 33.4794843,13.8345508 C32.4935919,13.9610978 31.4514432,14.9374181 30.3143619,16.7960322 C30.163173,17.0434704 30.0197194,17.2916155 29.8832977,17.5362258 L20.8232141,17.5333979 Z M3.59189702,17.4160416 C3.56869128,17.385642 3.54267272,17.3587773 3.51595096,17.3326195 C2.41262348,15.0469978 1.66300774,12.5570629 1.43516957,10.0918718 C1.23334994,7.90098352 1.63066035,4.91617223 2.34441267,2.76133927 C3.32819542,4.81507607 5.0257305,6.89002186 7.11635675,8.54361579 C9.65914334,10.5556416 12.5479064,11.7892976 15.383226,12.1003627 C16.182066,12.9770008 16.6834506,14.4298163 16.6651673,15.8550602 C16.6511033,16.9077329 16.3543511,18.4340729 15.018263,19.7214583 C13.9043874,20.793926 12.0718371,21.3347552 10.1141165,21.1664972 C7.55796902,20.9466307 5.18043543,19.5800651 3.59189702,17.4160416 L3.59189702,17.4160416 Z M56.0572633,15.7574989 C56.2295484,15.2364648 56.338545,14.6383714 56.338545,13.9512002 C56.338545,13.5673176 56.0298384,13.2555455 55.6479985,13.2555455 L49.2474333,13.2555455 C47.0449976,13.2555455 45.2166665,15.1353686 44.8770189,17.5850065 L39.5889229,17.5963179 L40.2914239,15.7631546 C40.6120851,15.838093 40.9334494,15.8783901 41.2498913,15.8783901 C42.8546034,15.8783901 44.3418804,14.9473156 45.0028924,13.3672461 C46.6948019,9.32410647 45.5809263,4.38594759 45.3404305,3.43719895 C45.2469043,3.06886956 44.8777221,2.84405431 44.5092431,2.93313205 C44.4424386,2.94868531 37.6705817,5.43791329 36.773293,10.3718304 C36.4104396,12.3697168 37.2985866,14.2544887 39.007373,15.2463623 L38.1269612,17.5447094 C38.1199292,17.5623836 38.1178196,17.5814716 38.1128971,17.5991458 L35.8661595,17.6040946 C35.3985287,16.1965249 34.886596,14.8582379 34.7255622,14.4446626 C35.2944545,13.1127383 35.4238441,11.5602405 35.086306,9.99996615 C34.518117,7.37712156 32.2312967,5.50931687 29.5267732,5.45770834 C27.2744099,5.41387644 25.76674,6.48280933 24.1697632,7.61536917 C23.4700749,8.11024551 22.7471809,8.62350297 21.9131807,9.08161706 C21.8055904,9.14029526 21.6965938,9.20109435 21.5854875,9.26330738 C20.2993269,9.97946413 18.8436941,10.7903544 16.7868217,10.7903544 C10.559948,10.7903544 4.39144026,5.4732616 3.03706886,0.718913925 C2.95901319,0.447438906 2.72625258,0.250195337 2.44778369,0.219088824 C2.1679084,0.187982312 1.89858117,0.330082517 1.76426916,0.578227652 C0.542100161,2.83769162 -0.223689274,7.16361777 0.0582956328,10.2198326 C0.416929803,14.1102676 2.04906688,18.3025772 4.53559713,21.7221727 C7.08893178,25.2343807 10.2013138,27.5638343 13.2996318,28.2799911 C13.6870973,28.3697758 14.0780789,28.4376446 14.4704669,28.4956158 L14.4620284,35.2436081 C14.4613252,35.6274908 14.7700319,35.9385559 15.1518718,35.9392629 L15.1532782,35.9392629 C15.5344149,35.9392629 15.8438248,35.6289047 15.844528,35.245729 L15.8529664,28.6412508 C16.1321385,28.657511 16.4106074,28.6645807 16.6897795,28.6645807 C17.8852267,28.6645807 19.0764547,28.5224805 20.2290065,28.2432289 L23.3863936,35.5221528 C23.4996095,35.7837303 23.7541694,35.9392629 24.0199807,35.9392629 C24.1121004,35.9392629 24.2063298,35.9208818 24.2963399,35.8812916 C24.6458324,35.72788 24.806163,35.3185466 24.6535677,34.9664774 L21.5657978,27.8487417 C21.7648046,27.7787521 21.9638114,27.7066415 22.158599,27.6281683 C25.1662036,26.4256188 27.7251639,24.1944334 29.602016,21.1523579 C30.77918,21.6465273 33.3866613,22.6419357 35.2684359,22.6419357 C35.544092,22.6419357 35.805684,22.6200197 36.0440702,22.572653 C36.3000366,22.5210445 36.5131075,22.3605631 36.6432002,22.1209016 C36.8260334,21.7822648 36.9497973,21.213864 36.301443,18.9932831 L44.8432651,18.975609 C45.0879802,21.5489659 46.9690515,23.5574569 49.2474333,23.5574569 L55.5657236,23.5574569 C55.9306866,23.5574569 56.2330644,23.2711356 56.2555669,22.9049271 C56.2984624,22.2029097 56.1430543,21.4994783 55.8547405,20.8207908 C57.4967225,20.0706996 58.6984985,18.7903838 58.768819,18.7147385 C59.0142372,18.4475052 59.0142372,18.0353439 58.768819,17.7688177 C58.7013113,17.6960002 57.5951711,16.5167806 56.0572633,15.7574989 L56.0572633,15.7574989 Z" id="Fill-5"></path>
                                </g>
                                <g id="Group-10" transform="translate(13.360881, 35.133392)" fill="#E86B7F">
                                    <path d="M82.969945,0.214917724 L59.4815165,0.214917724 L52.625275,15.0230317 L45.7683303,0.214917724 L0.442596759,0.214917724 L8.44013876,17.4472188 L8.44013876,49.4876338 L74.9709966,49.4876338 L74.9709966,17.4472188 L82.969945,0.214917724 Z M60.6235202,2.13008915 L80.0495377,2.13008915 L73.447153,16.2998126 L54.1498218,16.2962778 L60.6235202,2.13008915 Z M44.6270298,2.13008915 L51.2287113,16.2962778 L9.96538879,16.2962778 L3.36300403,2.13008915 L44.6270298,2.13008915 Z M10.3458223,47.5689275 L51.7350184,47.5689275 L51.7350184,18.2121562 L10.3458223,18.2121562 L10.3458223,47.5689275 Z M53.5148284,47.5689275 L73.0667195,47.5689275 L73.0667195,18.2121562 L53.5148284,18.2121562 L53.5148284,47.5689275 Z" id="Fill-8"></path>
                                </g>
                            </g>
                        </g>
                    </g>
                </g>
            </g>
        </g>
    </g>
</svg>