
<svg xmlns="http://www.w3.org/2000/svg" width="2397" height="907" viewBox="0 0 2397 907">
  <metadata><?xpacket begin="﻿" id="W5M0MpCehiHzreSzNTczkc9d"?>
<x:xmpmeta xmlns:x="adobe:ns:meta/" x:xmptk="Adobe XMP Core 5.6-c138 79.159824, 2016/09/14-01:09:01        ">
   <rdf:RDF xmlns:rdf="http://www.w3.org/1999/02/22-rdf-syntax-ns#">
      <rdf:Description rdf:about=""/>
   </rdf:RDF>
</x:xmpmeta>
                                                                                                    
                                                                                                    
                                                                                                    
                                                                                                    
                                                                                                    
                                                                                                    
                                                                                                    
                                                                                                    
                                                                                                    
                                                                                                    
                                                                                                    
                                                                                                    
                                                                                                    
                                                                                                    
                                                                                                    
                                                                                                    
                                                                                                    
                                                                                                    
                                                                                                    
                                                                                                    
                           
<?xpacket end="w"?></metadata>
<defs>
    <style>
      .cls-1 {
        fill: #b2b2b2;
        fill-rule: evenodd;
      }
    </style>
  </defs>
  <path id="Color_Fill_1" data-name="Color Fill 1" class="cls-1" d="M1968,18c31-.842,43.65,23.283,35,54-9.14,32.475-28.65,57.342-59,69-0.67-.333-1.33-0.667-2-1v-4C2031.4,92.7,1900.89,61.949,1968,18Zm290,35V167l-7-1c1.75-120.1-176.18-147.291-197-26-6.87,40.017,24.34,64.569,45,79,61.5,42.95,159.24,51.283,198,117,9.5,16.1,14,36.921,14,62-0.02,85.132-60.28,135.231-134,148-53.69,9.3-81.37-20.362-120-27-29.56-5.079-30.67,23.554-45,27-0.67-.333-1.33-0.667-2-1V433c0-11.571-3.12-32.988,4-38,7.59,7.339,6.95,33.019,11,43,11.21,27.63,29.94,54.915,52,72,59.14,45.808,154.2,35.632,187-28,5.63-10.914,13.28-26.825,10-46-18.73-109.5-174.99-91.238-229-167-56.57-79.351-3.61-188.454,68-213,40.24-13.793,73.9,8.374,106,14C2243.6,74.311,2243.21,54.616,2258,53ZM666,56c49.958,8.615,75.772,6.865,108,32,62.361,48.636,51.019,176.314,51,287-0.006,33.69-7.868,112.588,4,136,19.3,38.077,51.9.626,65-13l4,3c-29.507,79.558-127.777,43.025-142-27h-1c-11.148,56.511-97.523,84.01-171,68-60.625-13.21-116.351-50.119-102-133,12.76-73.689,57.142-104.556,129-119,36.789-7.395,126.11-1.439,139-28q0.5-34,1-68c0-73.373-18.488-145.919-100-130-72.911,14.239-17.746,60.914-32,100-6.045,16.577-37.059,34.476-60,20-9.667-6.1-15.113-15.807-18-29-10.9-49.8,35.579-80.519,69-91C626.114,58.947,648.309,62.62,666,56ZM31,63H188c31.09,0,61.849-2.5,87,3,98.741,21.6,199.284,134.115,173,271-5.68,29.582-13.016,56.46-25,80-27.214,53.454-73.9,95.443-137,113-25.936,7.216-61.433,5-94,5H31l1-8,61-1V183c0-15.964,2.3-107.168-3-111L31,71V63Zm785,0h215v8l-70,1v1q75.99,185.982,152,372h1c0.33-.333.67-0.667,1-1l97-289c9.12-25.954,24.02-53.63,27-83h-2l-61-1V63h223c14.68,0,67.88-3.19,73,4-0.33,1.333-.67,2.667-1,4l-61,1V527c14.76-.4,55.31-4.906,62,4-0.33,1.333-.67,2.667-1,4H1275c0.33-2.666.67-5.334,1-8,17.47,0.271,47.54,4.191,61-2q-0.495-225.477-1-451c-0.67-1-1.33-2-2-3l-83,1c-7.38,4.429-9.89,24.14-13,33q-15.495,45.5-31,91-60,175.482-120,351l-7-1Q980.5,309.024,881,72l-65-1V63Zm758,464V189c0-17.983,4.44-109.547-2-117l-59-1V63h147c45.35,0,86.17-1.919,120,9,127.97,41.3,200.36,222.765,115,362-26.05,42.492-67.71,77.949-120,94-28.62,8.786-67.58,7-105,7H1513c-0.33-1-.67-2-1-3,0.67-1.667,1.33-3.333,2-5h60ZM2326,66c0.33,7.513,1.26,19.712-2,24h-1V66c-5.69.235-6.95,0.7-9-3h20v3h-8Zm14-3c6.19,2.1,8.95,8.924,12,14,0.67-.333,1.33-0.667,2-1,1.93-5.443,5.22-11.163,11-13V90h-1c-0.67-.333-1.33-0.667-2-1q-0.495-10-1-20v2q-4.005,5.5-8,11l-3-2-6-11h-1c0.52,7.227,1.54,18.279-3,21V63ZM168,71l-3,3q0.5,226.478,1,453c77.508,0.605,138.692,2.747,171-41,55.233-74.79,50.742-338.781-18-392C285.838,68.326,227.945,70.555,168,71Zm1482,0c-7.84,8.882-3,96.846-3,117V525c0.33,0.667.67,1.333,1,2,68.8,0.539,131.12,3.754,163-32,60.68-68.066,63.18-343.982-9-400C1768.26,68.819,1711.27,70.545,1650,71ZM749,275c-29.213,21.643-88.658,11.729-125,26-19.289,7.575-37.561,21.491-48,38-30.3,47.918-29.742,150.446,15,181,57.782,39.458,144.914-.486,159-53q0.5-43,1-86C751,364.436,755.015,281.838,749,275Zm635,464,11,1q31.5,68.993,63,138h-12q-8.505-19.5-17-39l-82,1q-9,19-18,38h-9v-1Q1352,808.007,1384,739Zm-635,1c44.841-1.247,93.342-7.284,101,30,4.148,20.194-10.065,28.538-21,37v1c26.275,2.915,40.826,41.154,18,59-19.293,15.083-63.487,11.841-98,11V740Zm166,0c48.036-1.109,96.71-6.747,106,32,2.64,11-.22,23.178-5,30-7.75,11.047-21.184,10.772-33,18l2,2q21,28,42,56h-13l-44-57H925v57H915V740Zm172,0h10V878h-10V740Zm80,0c51.8-.946,89.36.413,109,31,27.35,42.582-2.5,92.155-38,104-18.27,6.1-48.07,3.372-71,3V740Zm348,0h10V869h81v9h-91V740Zm-756,9v55c33.3,0.986,89.913,5.757,81-34C834.14,743.861,791.458,748.065,759,749Zm166,0v62c36.494,0.99,96.54,6.3,87-37C1005.4,744.056,962.034,748.025,925,749Zm252,0q0.495,59.994,1,120c54.04,1.178,86.83-5.382,96-49,2.94-13.98.06-30.442-5-40C1253.93,751.511,1221.99,748.1,1177,749Zm211,2q-18,39.5-36,79h72Q1406,790.5,1388,751ZM759,813v56c33.9,0.929,97.272,6.472,89-33C841.963,807.193,794.317,812.067,759,813Z"/>
</svg>
